<?xml version="1.0" standalone="no"?>
<!DOCTYPE svg PUBLIC "-//W3C//DTD SVG 1.1//EN" "http://www.w3.org/Graphics/SVG/1.1/DTD/svg11.dtd" >
<svg xmlns="http://www.w3.org/2000/svg">
<metadata>
<json>
<![CDATA[
{
	"fontFamily": "Ikon-Crypto",
	"majorVersion": 1,
	"minorVersion": 0,
	"copyright": "Softnio",
	"fontURL": "http://softnio.com/",
	"designer": "SoftNio Team",
	"designerURL": "http://softnio.com/",
	"license": "GPL 3",
	"licenseURL": "https://www.gnu.org/licenses/gpl-3.0.en.html",
	"description": "Font Icons for crypto currency related templates.\nFont generated by IcoMoon.",
	"version": "Version 1.0",
	"fontId": "Ikon-Crypto",
	"psName": "Ikon-Crypto",
	"subFamily": "Regular",
	"fullName": "Ikon-Crypto"
}
]]>
</json>
</metadata>
<defs>
<font id="Ikon-Crypto" horiz-adv-x="1024">
<font-face units-per-em="1024" ascent="960" descent="-64" />
<missing-glyph horiz-adv-x="1024" />
<glyph unicode="&#x20;" horiz-adv-x="512" d="" />
<glyph unicode="&#xe900;" glyph-name="shiled" data-tags="shiled" d="M627.2 49.6h-374.4c-28.8 0-51.2 22.4-51.2 51.2v694.4c0 28.8 22.4 51.2 51.2 51.2h374.4c28.8 0 51.2-22.4 51.2-51.2v-235.2h-6.4v235.2c0 24-19.2 44.8-44.8 44.8v0h-374.4c-24 0-44.8-19.2-44.8-44.8 0 0 0 0 0 0v-694.4c0-24 19.2-44.8 44.8-44.8v0h374.4c24 0 44.8 19.2 44.8 44.8 0 0 0 0 0 0v56h6.4v-56c0-28.8-22.4-51.2-51.2-51.2 0 0 0 0 0 0zM204.8 233.6h364.8v-6.4h-364.8v6.4zM428.8 97.6c-25.6 0-46.4 20.8-46.4 46.4s20.8 46.4 46.4 46.4 46.4-20.8 46.4-46.4c0 0 0 0 0 0 0-25.6-20.8-46.4-46.4-46.4zM428.8 184c-22.4 0-40-17.6-40-40s17.6-40 40-40c22.4 0 40 17.6 40 40s-17.6 40-40 40c0 0 0 0 0 0zM694.4 300.8c-6.4 0-12.8 3.2-16 8l-27.2 36.8c-6.4 8-3.2 19.2 3.2 25.6l40 32c3.2 3.2 9.6 4.8 14.4 3.2 4.8 0 9.6-3.2 12.8-6.4l30.4-41.6c3.2-4.8 4.8-9.6 3.2-14.4s-3.2-9.6-8-12.8l-41.6-27.2c-3.2-1.6-6.4-3.2-11.2-3.2zM684.8 312c3.2-4.8 11.2-6.4 16-3.2l44.8 28.8c3.2 1.6 4.8 4.8 4.8 8s0 6.4-1.6 9.6l-30.4 41.6c-4.8 4.8-11.2 6.4-17.6 1.6 0 0 0 0 0 0l-40-32c-4.8-3.2-6.4-11.2-3.2-16l27.2-38.4zM350.4 312l-56 115.2c-16 30.4-3.2 68.8 28.8 84.8 30.4 16 68.8 3.2 84.8-28.8 4.8-8 6.4-17.6 6.4-27.2s-1.6-19.2-6.4-28.8l-57.6-115.2zM350.4 513.6c-32 0-57.6-25.6-57.6-57.6 0-9.6 1.6-17.6 6.4-25.6l51.2-107.2 51.2 107.2c4.8 8 6.4 17.6 6.4 25.6 0 32-25.6 57.6-57.6 57.6zM350.4 419.2c-19.2 0-35.2 16-35.2 35.2s16 35.2 35.2 35.2 35.2-16 35.2-35.2c0 0 0 0 0 0 0-19.2-16-35.2-35.2-35.2zM350.4 486.4c-17.6 0-30.4-14.4-30.4-30.4 0-17.6 14.4-30.4 30.4-30.4 17.6 0 30.4 14.4 30.4 30.4s-14.4 30.4-30.4 30.4zM555.2 587.2l-35.2 72c-9.6 19.2-1.6 43.2 17.6 52.8 4.8 3.2 11.2 4.8 17.6 4.8 22.4 0 40-17.6 40-40v0c0-6.4-1.6-12.8-4.8-17.6l-35.2-72zM555.2 712c-19.2 0-35.2-16-35.2-35.2v0c0-4.8 1.6-11.2 3.2-16l30.4-64 30.4 64c8 17.6 1.6 38.4-16 46.4-1.6 3.2-6.4 4.8-12.8 4.8v0zM555.2 654.4c-12.8 0-22.4 9.6-22.4 22.4s9.6 22.4 22.4 22.4c12.8 0 22.4-9.6 22.4-22.4 0 0 0 0 0 0 0-12.8-9.6-22.4-22.4-22.4zM555.2 696c-9.6 0-17.6-8-17.6-17.6s8-17.6 17.6-17.6c9.6 0 17.6 8 17.6 17.6 1.6 9.6-8 17.6-17.6 17.6zM369.6 318.4l36.8 76.8h3.2c16 0 33.6 6.4 46.4 17.6 8 8 12.8 16 17.6 25.6l4.8-1.6c-4.8-9.6-11.2-19.2-19.2-27.2-12.8-11.2-30.4-17.6-48-17.6h-1.6l-32-65.6c12.8 0 25.6 1.6 38.4 4.8 19.2 4.8 38.4 12.8 54.4 22.4 14.4 9.6 27.2 20.8 35.2 35.2 1.6 3.2 3.2 4.8 4.8 8l4.8-1.6c-1.6-3.2-3.2-4.8-4.8-8-9.6-14.4-22.4-27.2-36.8-35.2-17.6-11.2-36.8-17.6-56-22.4-14.4-3.2-28.8-4.8-43.2-6.4l-4.8-4.8zM523.2 449.6c0 1.6 0 3.2 0 6.4s0 6.4 0 8-1.6 8-1.6 11.2-3.2 14.4-6.4 20.8c-1.6 3.2-3.2 8-4.8 11.2s-4.8 11.2-6.4 16c-3.2 12.8-1.6 25.6 6.4 36.8 3.2 4.8 6.4 9.6 11.2 12.8l1.6 1.6c3.2 3.2 6.4 6.4 11.2 9.6l-1.6 1.6h-1.6c-16-6.4-60.8-22.4-60.8-65.6 0-6.4 1.6-14.4 3.2-20.8 1.6-3.2 1.6-6.4 1.6-8l-4.8-1.6c0 3.2-1.6 6.4-1.6 8-3.2 6.4-3.2 14.4-4.8 20.8-1.6 48 44.8 64 64 70.4l3.2 1.6h1.6l1.6-1.6c1.6-1.6 1.6-3.2 3.2-4.8l1.6-1.6-1.6-1.6c-4.8-3.2-8-6.4-12.8-9.6l-1.6-1.6c-3.2-3.2-8-8-11.2-12.8-6.4-9.6-9.6-20.8-6.4-32 1.6-4.8 3.2-11.2 6.4-16l4.8-11.2c3.2-6.4 4.8-14.4 6.4-20.8 1.6-3.2 1.6-6.4 3.2-9.6 0-3.2 0-4.8 0-8 0-1.6 0-3.2 0-4.8l-3.2-4.8zM688 195.2c-22.4 0-44.8 6.4-64 19.2-1.6 0-1.6 1.6-3.2 3.2l-84.8 84.8c-6.4 6.4-6.4 14.4 0 20.8l3.2 3.2c6.4 4.8 14.4 4.8 20.8 0l54.4-52.8c3.2-3.2 8-3.2 11.2 0 1.6 1.6 3.2 3.2 3.2 6.4 0 1.6-1.6 4.8-3.2 6.4l-168 164.8c-6.4 6.4-6.4 14.4 0 20.8 0 0 0 0 0 0l12.8 12.8c3.2 3.2 6.4 4.8 9.6 4.8v0c3.2 0 8-1.6 11.2-4.8l67.2-68.8c1.6-1.6 3.2-1.6 6.4-3.2 1.6 0 4.8 0 6.4 3.2l19.2 19.2c6.4 6.4 14.4 6.4 20.8 0l19.2-19.2c3.2-3.2 9.6-3.2 11.2 1.6 3.2 3.2 3.2 8 0 11.2l-17.6 16c-4.8 6.4-4.8 14.4 0 19.2l11.2 11.2c3.2 3.2 6.4 4.8 11.2 4.8v0c4.8 0 8-1.6 11.2-4.8l12.8-12.8c3.2-3.2 8-3.2 11.2-1.6l28.8 22.4c4.8 4.8 12.8 4.8 17.6 0 25.6-20.8 108.8-97.6 92.8-196.8 0-3.2-1.6-4.8-3.2-6.4-28.8-33.6-70.4-84.8-129.6-84.8zM550.4 323.2c-1.6 0-4.8-1.6-6.4-3.2l-3.2-3.2c-3.2-3.2-3.2-8 0-11.2l84.8-84.8c0 0 1.6-1.6 1.6-1.6 81.6-48 137.6 8 184 64 1.6 1.6 1.6 3.2 1.6 4.8 16 96-65.6 171.2-91.2 192-3.2 3.2-8 3.2-9.6 0l-27.2-22.4c-6.4-4.8-14.4-3.2-19.2 1.6l-12.8 12.8c-1.6 1.6-3.2 3.2-6.4 3.2-1.6 0-4.8-1.6-6.4-3.2l-11.2-12.8c-3.2-3.2-3.2-8 0-11.2l17.6-19.2c4.8-6.4 4.8-14.4 0-19.2-6.4-6.4-14.4-6.4-20.8 0l-19.2 19.2c-3.2 3.2-8 3.2-11.2 0l-19.2-17.6c-3.2-3.2-6.4-4.8-9.6-4.8v0c-3.2 0-8 1.6-11.2 4.8l-67.2 68.8c-1.6 1.6-4.8 3.2-8 1.6-1.6 0-4.8-1.6-6.4-3.2l-12.8-12.8c-1.6-1.6-3.2-3.2-3.2-6.4 0-1.6 1.6-4.8 3.2-6.4l169.6-164.8c6.4-6.4 6.4-14.4 0-20.8 0 0 0 0 0 0-6.4-6.4-14.4-6.4-20.8 0 0 0 0 0 0 0l-52.8 52.8c-1.6 1.6-4.8 3.2-6.4 3.2v0z" />
<glyph unicode="&#xe901;" glyph-name="id-card" data-tags="id-card" d="M804.8 56h-585.6c-17.6 0-32 14.4-32 32v344c0 17.6 14.4 32 32 32h585.6c17.6 0 32-14.4 32-32v-344c0-19.2-14.4-32-32-32zM219.2 456c-12.8 0-24-11.2-24-24v0-344c0-12.8 11.2-24 24-24v0h585.6c12.8 0 24 11.2 24 24v0 344c0 12.8-11.2 24-24 24v0h-585.6zM275.2 200h115.2v-6.4h-115.2v6.4zM448 200h123.2v-6.4h-123.2v6.4zM628.8 200h118.4v-6.4h-118.4v6.4zM275.2 152h139.2v-6.4h-139.2v6.4zM467.2 152h116.8v-6.4h-116.8v6.4zM324.8 268.8h-30.4c-9.6 0-16 6.4-16 16v86.4c0 9.6 6.4 16 16 16h30.4c9.6 0 16-6.4 16-16v-86.4c0-9.6-6.4-16-16-16zM294.4 379.2c-4.8 0-8-3.2-8-8v-86.4c0-4.8 3.2-8 8-8h30.4c4.8 0 8 3.2 8 8v86.4c0 4.8-3.2 8-8 8h-30.4zM436.8 268.8h-84.8c-9.6 0-16 6.4-16 16v86.4c0 9.6 6.4 16 16 16h86.4c9.6 0 16-6.4 16-16v-86.4c0-9.6-8-16-17.6-16 1.6 0 0 0 0 0zM352 379.2c-4.8 0-8-3.2-8-8v-86.4c0-4.8 3.2-8 8-8h86.4c4.8 0 8 3.2 8 8v86.4c0 4.8-3.2 8-8 8h-86.4zM510.4 361.6h176v-6.4h-176v6.4zM510.4 312h110.4v-6.4h-110.4v6.4zM252.8 534.4l12.8 70.4h121.6c67.2 0 84.8 27.2 94.4 54.4 6.4 19.2 9.6 38.4 11.2 57.6 1.6 12.8-3.2 25.6-12.8 36.8-11.2 11.2-30.4 16-60.8 16h-124.8l12.8 70.4h137.6c52.8 0 88-12.8 108.8-38.4s27.2-65.6 16-121.6c-12.8-65.6-43.2-110.4-88-131.2-28.8-12.8-59.2-17.6-89.6-16l-139.2 1.6zM264 542.4h128c28.8-1.6 59.2 3.2 86.4 14.4 43.2 19.2 72 64 83.2 124.8 9.6 52.8 4.8 91.2-14.4 115.2s-52.8 35.2-102.4 35.2h-129.6l-11.2-52.8h115.2c32 0 54.4-6.4 67.2-19.2 9.6-11.2 16-27.2 14.4-43.2-1.6-20.8-4.8-41.6-11.2-60.8-9.6-28.8-30.4-60.8-102.4-60.8h-113.6l-9.6-52.8zM198.4 651.2l1.6 4.8c0 0 1.6 8 6.4 25.6 1.6 24 24 41.6 48 40 0 0 0 0 0 0h142.4l-1.6-4.8c0 0-1.6-8-6.4-25.6-1.6-24-24-41.6-48-40 0 0 0 0 0 0h-142.4zM252.8 713.6c-19.2 1.6-36.8-11.2-38.4-30.4 0 0 0-1.6 0-1.6-1.6-6.4-3.2-12.8-3.2-16l-1.6-3.2h131.2c19.2-1.6 36.8 11.2 38.4 30.4 0 0 0 1.6 0 1.6 1.6 6.4 3.2 12.8 3.2 16l1.6 3.2h-131.2zM535.877 527.672l173.098 173.098 4.525-4.525-173.098-173.098-4.525 4.525z" />
<glyph unicode="&#xe902;" glyph-name="paricle" data-tags="paricle" d="M795.2 52.8h-355.2c-27.2 0-48 20.8-48 48v102.4h8v-104c0-22.4 17.6-41.6 41.6-41.6v0h353.6c22.4 0 41.6 17.6 41.6 41.6 0 0 0 0 0 0v696c0 22.4-17.6 41.6-41.6 41.6v0h-355.2c-22.4 0-40-19.2-40-41.6v-6.4h-6.4v6.4c0 25.6 22.4 48 48 48h353.6c25.6 0 48-20.8 48-48v-696c-1.6-25.6-22.4-46.4-48-46.4zM764.8 139.2h-294.4c-20.8 0-36.8 16-36.8 36.8v24h6.4v-24c0-17.6 14.4-30.4 30.4-30.4h294.4c17.6 0 30.4 14.4 30.4 30.4v544c0 17.6-14.4 30.4-30.4 30.4h-147.2v6.4h147.2c20.8 0 36.8-16 36.8-36.8 0 0 0 0 0 0v-544c0-20.8-16-36.8-36.8-36.8zM542.4 283.2l-360 6.4v435.2c0 40 3.2 68.8 57.6 68.8h344l-8-6.4c-22.4-20.8-35.2-51.2-33.6-81.6v-422.4zM188.8 296l347.2-6.4v416c0 30.4 9.6 59.2 30.4 81.6h-326.4c-48 0-51.2-24-51.2-62.4v-428.8zM620.8 200h-321.6c-38.4 0-38.4 19.2-38.4 52.8v40h6.4v-40c0-32 0-46.4 32-46.4h316.8v547.2c0 17.6-3.2 27.2-11.2 32-11.2 3.2-22.4 0-30.4-6.4-9.6-4.8-17.6-14.4-20.8-24h-9.6c-1.6 8 11.2 22.4 24 30.4 9.6 9.6 24 11.2 36.8 8 9.6-4.8 14.4-17.6 14.4-36.8v-556.8zM651.2 180.8c-16 0-28.8 8-36.8 20.8l4.8 3.2c8-12.8 22.4-20.8 38.4-17.6 17.6 3.2 32 16 35.2 33.6 8 36.8 0 436.8 0 476.8h-76.8v6.4h83.2v-3.2c0-17.6 8-443.2 0-481.6-4.8-20.8-20.8-35.2-41.6-40-1.6 1.6-3.2 1.6-6.4 1.6zM756.8 321.6h-60.8l-3.2 382.4h3.2c44.8-6.4 60.8-28.8 59.2-75.2s0-300.8 0-304l1.6-3.2zM704 328h48c0 30.4-1.6 256 0 300.8s-12.8 62.4-51.2 68.8l3.2-369.6zM558.4 102.4h108.8v-6.4h-108.8v6.4zM227.2 654.4h110.4v-3.2h-110.4v3.2zM425.6 654.4h49.6v-3.2h-49.6v3.2zM425.6 630.4h49.6v-3.2h-49.6v3.2zM425.6 604.8h49.6v-3.2h-49.6v3.2zM425.6 580.8h49.6v-3.2h-49.6v3.2zM425.6 555.2h49.6v-3.2h-49.6v3.2zM425.6 505.6h49.6v-3.2h-49.6v3.2zM425.6 481.6h49.6v-3.2h-49.6v3.2zM227.2 630.4h72v-3.2h-72v3.2zM227.2 604.8h110.4v-3.2h-110.4v3.2zM227.2 580.8h64v-3.2h-64v3.2zM227.2 555.2h96v-3.2h-96v3.2zM227.2 505.6h75.2v-3.2h-75.2v3.2zM227.2 481.6h124.8v-3.2h-124.8v3.2zM227.2 427.2h110.4v-19.2h-110.4v19.2zM379.2 404.8c-1.6-1.6-3.2-3.2-4.8-3.2-1.6-1.6-4.8-1.6-6.4-1.6v-4.8h-1.6v4.8c-3.2 0-6.4 1.6-9.6 3.2-1.6 1.6-3.2 4.8-3.2 8h9.6c0-1.6 0-1.6 1.6-3.2 0-1.6 1.6-1.6 3.2-1.6v8h-1.6c-1.6 0-4.8 1.6-6.4 1.6s-3.2 1.6-3.2 3.2c-1.6 1.6-1.6 3.2-1.6 6.4 0 1.6 0 4.8 1.6 6.4s3.2 3.2 4.8 3.2c1.6 1.6 4.8 1.6 6.4 1.6v0c3.2 0 6.4-1.6 9.6-3.2 1.6-1.6 3.2-4.8 3.2-8h-9.6c0 1.6 0 1.6-1.6 3.2 0 0-1.6 1.6-1.6 1.6v-8h1.6l6.4-1.6c1.6 0 3.2-1.6 3.2-3.2 3.2-4.8 3.2-9.6 0-12.8v0zM361.6 424c0 0 1.6-1.6 3.2-1.6v8c-1.6 0-1.6 0-3.2-1.6 0 0 0-3.2 0-4.8zM369.6 408c0 0 1.6 1.6 1.6 3.2s0 1.6-1.6 3.2c-1.6 0-1.6 1.6-3.2 1.6v-8c1.6-1.6 3.2-1.6 3.2 0zM382.4 428.8v8h14.4v-36.8h-9.6v28.8h-4.8zM419.2 425.6c0 3.2-1.6 4.8-3.2 4.8s-1.6 0-3.2-1.6c0-1.6-1.6-3.2-1.6-4.8h-8c0 6.4 4.8 12.8 11.2 12.8 0 0 1.6 0 1.6 0 3.2 0 6.4-1.6 8-3.2s3.2-4.8 3.2-8c0-3.2-1.6-8-3.2-11.2-3.2-3.2-6.4-6.4-9.6-8h14.4v-6.4h-25.6v6.4c9.6 8 16 14.4 16 19.2zM440 409.6v-9.6h-8v8l8 1.6zM472 430.4h-16v-8c1.6 1.6 1.6 1.6 3.2 1.6s3.2 0 4.8 0c1.6 0 4.8 0 6.4-1.6s3.2-3.2 3.2-4.8c0-1.6 1.6-3.2 1.6-6.4s-1.6-6.4-3.2-9.6c-4.8-1.6-8-3.2-11.2-1.6-3.2 0-4.8 0-8 1.6-1.6 1.6-3.2 1.6-4.8 4.8-1.6 1.6-1.6 3.2-1.6 6.4h8c0-1.6 0-1.6 1.6-3.2s4.8-1.6 6.4 0c1.6 1.6 1.6 3.2 1.6 3.2 0 1.6 0 3.2-1.6 3.2-1.6 1.6-1.6 1.6-3.2 1.6s-1.6 0-3.2 0c0 0-1.6-1.6-1.6-1.6h-6.4v22.4h24v-8zM500.8 430.4l-12.8-30.4h-9.6l12.8 28.8h-16v8h25.6v-6.4z" />
<glyph unicode="&#xe903;" glyph-name="target" data-tags="target" d="M523.2 118.4c-104 0-188.8 84.8-188.8 187.2s84.8 188.8 187.2 188.8c104 0 188.8-84.8 188.8-187.2 0 0 0 0 0 0 0-104-84.8-188.8-187.2-188.8zM523.2 488c-100.8 0-182.4-81.6-182.4-180.8 0-100.8 81.6-182.4 180.8-182.4 100.8 0 182.4 81.6 182.4 180.8 0 0 0 0 0 0 0 100.8-81.6 182.4-180.8 182.4zM523.2 59.2c-136 0-246.4 110.4-246.4 246.4s110.4 246.4 246.4 246.4 246.4-110.4 246.4-246.4c0-136-110.4-246.4-246.4-246.4zM523.2 547.2c-132.8 0-240-107.2-240-240s107.2-240 240-240 240 107.2 240 240-108.8 240-240 240c0 0 0 0 0 0zM585.6 592h-134.4v59.2h134.4v-59.2zM457.6 598.4h121.6v46.4h-121.6v-46.4zM515.2 595.2h6.4v-44.8h-6.4v44.8zM518.4 268.8c-1.6 0-1.6 0-1.6 1.6l-78.4 78.4c-1.6 1.6-1.6 3.2 0 4.8s3.2 1.6 4.8 0l78.4-78.4c1.6-1.6 1.6-3.2 0-4.8 0 0 0 0 0 0-1.6-1.6-1.6-1.6-3.2-1.6zM518.4 268.8c-1.6 0-1.6 0-1.6 1.6-1.6 1.6-1.6 3.2 0 4.8 0 0 0 0 0 0l104 105.6c1.6 1.6 3.2 0 4.8 0 1.6-1.6 1.6-3.2 0-3.2l-104-105.6c-1.6-3.2-1.6-3.2-3.2-3.2zM691.2 478.4c-1.6 0-1.6 0-1.6 0-1.6 1.6-1.6 3.2 0 4.8l36.8 36.8c1.6 1.6 3.2 1.6 4.8 0 0 0 0 0 0 0 1.6-1.6 1.6-3.2 0-4.8l-36.8-36.8c-1.6 0-1.6 0-3.2 0zM766.4 588.8c-1.6 0-1.6 0-1.6 1.6-1.6 1.6-1.6 3.2 0 4.8 0 0 0 0 0 0l68.8 67.2c1.6 1.6 3.2 1.6 4.8 0 0 0 0 0 0 0 1.6-1.6 1.6-3.2 0-4.8l-70.4-68.8c0 0-1.6 0-1.6 0zM652.8 680c-1.6 0-1.6 0-1.6 1.6-1.6 1.6-1.6 3.2 0 4.8l54.4 54.4c1.6 1.6 3.2 1.6 4.8 0s1.6-3.2 0-4.8l-54.4-54.4c-1.6-1.6-3.2-1.6-3.2-1.6zM388.8 681.6c-1.6 0-1.6 0-1.6 1.6l-62.4 62.4c-1.6 1.6 0 3.2 0 4.8 1.6 1.6 3.2 1.6 3.2 0l62.4-62.4c1.6-1.6 1.6-3.2 0-4.8 0 0 0 0 0 0 0-1.6-1.6-1.6-1.6-1.6zM278.4 576c0 0-1.6 0-1.6 0l-94.4 64c-1.6 1.6-1.6 3.2-1.6 4.8 1.6 1.6 3.2 1.6 4.8 1.6l94.4-62.4c1.6-1.6 1.6-3.2 0-4.8 1.6-1.6 0-1.6-1.6-3.2v0zM241.6 446.4h-99.2c-1.6 0-3.2 1.6-3.2 3.2v0c0 1.6 1.6 3.2 3.2 3.2 0 0 0 0 0 0h99.2c1.6 0 3.2-1.6 3.2-3.2 0 0 0 0 0 0 0-1.6-1.6-3.2-3.2-3.2 0 0 0 0 0 0zM881.6 446.4h-81.6c-1.6 0-3.2 1.6-3.2 3.2v0c0 1.6 1.6 3.2 3.2 3.2 0 0 0 0 0 0h81.6c1.6 0 3.2-1.6 3.2-3.2 0 0 0 0 0 0 0-1.6-1.6-3.2-3.2-3.2v0zM518.4 713.6c-1.6 0-3.2 1.6-3.2 3.2 0 0 0 0 0 0v116.8c0 1.6 1.6 3.2 3.2 3.2s3.2-1.6 3.2-3.2v-116.8c0-3.2 0-3.2-3.2-3.2v0z" />
<glyph unicode="&#xe904;" glyph-name="connect" data-tags="connect" d="M563.2 224c-27.2-3.2-52.8 14.4-59.2 41.6 0 0 0 1.6 0 1.6v51.2c0 4.8 3.2 8 8 8 0 0 0 0 0 0h1.6c4.8 0 8-3.2 8-8 0 0 0 0 0 0v-32c0-1.6 3.2-1.6 3.2 0v100.8c0 4.8 3.2 8 8 8h8c4.8 0 8-3.2 8-8 0 0 0 0 0 0v-41.6c0-1.6 0-1.6 1.6-1.6 0 0 0 0 0 0h11.2c4.8 0 8-3.2 8-8v-11.2c0-1.6 0-1.6 1.6-1.6 0 0 0 0 0 0 1.6 0 1.6 0 1.6 1.6v11.2c0 4.8 3.2 8 8 8h6.4c1.6 0 4.8-1.6 6.4-3.2s3.2-3.2 3.2-6.4v-8c0-1.6 0-1.6 1.6-1.6 0 0 0 0 0 0l14.4-1.6c3.2 0 6.4-3.2 8-6.4 1.6-14.4 3.2-64-32-89.6-1.6-1.6-3.2-1.6-3.2-1.6-8-1.6-14.4-1.6-22.4-1.6zM512 320c-1.6 0-1.6 0-1.6-1.6v0-51.2c9.6-38.4 41.6-38.4 73.6-35.2h1.6c33.6 24 32 70.4 30.4 83.2 0 0 0 1.6-1.6 1.6l-16 1.6c-4.8 0-8 4.8-8 8v8c0 0 0 1.6 0 1.6s-1.6 0-1.6 0h-8c-1.6 0-1.6 0-1.6-1.6v-11.2c-1.6-4.8-4.8-8-9.6-6.4-3.2 0-6.4 3.2-6.4 6.4v12.8c0 1.6 0 1.6-1.6 1.6v0h-11.2c-1.6 0-4.8 1.6-6.4 3.2s-1.6 3.2-3.2 6.4v41.6c0 0 0 1.6 0 1.6s0 0-1.6 0h-8c-1.6 0-1.6 0-1.6-1.6v0-102.4c0-4.8-3.2-8-8-8s-8 3.2-8 8c0 0 0 0 0 0v32c1.6 0 0 0-1.6 1.6v0 0zM675.2 48c-193.6 0-454.4 1.6-563.2 1.6-12.8 0-24 4.8-32 14.4-9.6 9.6-12.8 22.4-11.2 36.8l46.4 340.8c1.6 20.8 20.8 38.4 43.2 38.4v-6.4c-19.2 0-35.2-12.8-36.8-32l-46.4-342.4c-1.6-11.2 1.6-24 9.6-32 6.4-8 17.6-11.2 27.2-11.2 180.8 0 771.2-3.2 795.2 0s28.8 3.2 35.2 28.8c0 3.2 1.6 6.4 1.6 8 4.8 118.4-6.4 238.4-32 353.6-3.2 17.6-28.8 25.6-44.8 25.6v8c20.8 0 46.4-11.2 51.2-30.4 12.8-57.6 41.6-209.6 32-355.2 0-3.2 0-6.4-1.6-9.6-8-28.8-12.8-30.4-41.6-33.6-9.6-3.2-107.2-3.2-232-3.2zM684.8 107.2c-193.6 0-456 0-564.8 1.6-24 0-43.2 19.2-43.2 43.2 0 1.6 0 3.2 0 4.8l36.8 284.8c3.2 20.8 22.4 38.4 44.8 38.4h172.8v-6.4h-172.8c-19.2 0-33.6-14.4-36.8-32l-38.4-286.4c-1.6-11.2 1.6-20.8 9.6-28.8 6.4-8 17.6-12.8 27.2-12.8 180.8 0 769.6-3.2 795.2 0 9.6 0 19.2 3.2 25.6 9.6 6.4 8 12.8 24 4.8 56 0 1.6 0 1.6 0 3.2-8 152-19.2 200-32 256l-1.6 9.6c-4.8 19.2-11.2 25.6-27.2 25.6h-160v6.4h160c22.4 0 28.8-14.4 33.6-30.4l1.6-6.4c12.8-56 24-105.6 32-257.6 0 0 0-1.6 0-1.6 4.8-28.8 3.2-49.6-6.4-60.8-8-8-17.6-12.8-28.8-12.8-11.2-3.2-107.2-3.2-232-3.2zM849.6 152h-657.6l27.2 328h99.2v-8h-92.8l-27.2-313.6h644.8l-22.4 313.6h-96v8h102.4v-3.2zM158.4 347.2h6.4v-52.8h-6.4v52.8zM150.4 259.2h6.4v-12.8h-6.4v12.8zM392 644.8h46.4v-6.4h-46.4v6.4zM473.6 278.4h-126.4v233.6h6.4v-227.2h120zM704 278.4h-68.8v6.4h62.4v353.6h-64v6.4h70.4zM268.8 504c-60.8 0-110.4 49.6-110.4 110.4s49.6 110.4 110.4 110.4c35.2 0 68.8-17.6 89.6-46.4 14.4-19.2 20.8-41.6 20.8-65.6 1.6-59.2-48-108.8-110.4-108.8 1.6 0 1.6 0 0 0v0zM268.8 720c-57.6 0-104-46.4-104-104s46.4-104 104-104c57.6 0 104 46.4 104 104 0 22.4-6.4 43.2-20.8 62.4-17.6 25.6-49.6 41.6-83.2 41.6v0zM289.6 587.2c0 4.8-1.6 9.6-4.8 12.8-4.8 4.8-9.6 6.4-16 8-8 1.6-17.6 6.4-24 12.8-4.8 4.8-8 12.8-8 20.8s1.6 14.4 8 20.8c4.8 4.8 12.8 9.6 20.8 9.6v17.6h12.8v-17.6c8-1.6 14.4-4.8 19.2-11.2s8-16 6.4-24h-16c0 6.4-1.6 12.8-4.8 17.6s-8 6.4-12.8 6.4c-8 1.6-17.6-4.8-17.6-12.8 0-1.6 0-3.2 0-4.8 0-4.8 1.6-9.6 4.8-12.8 4.8-4.8 11.2-8 17.6-9.6 8-1.6 16-6.4 24-12.8 4.8-4.8 8-12.8 8-20.8s-3.2-16-8-20.8c-6.4-4.8-14.4-8-22.4-9.6v-14.4h-12.8v14.4c-8 0-16 4.8-22.4 9.6-6.4 6.4-8 16-6.4 25.6v0h14.4c0-6.4 1.6-12.8 6.4-17.6 4.8-3.2 9.6-4.8 14.4-4.8 6.4 0 11.2 1.6 16 4.8 1.6 3.2 3.2 8 3.2 12.8zM534.4 625.6c-60.8 0-110.4 49.6-110.4 110.4s49.6 110.4 110.4 110.4 110.4-49.6 110.4-110.4c0 0 0 0 0 0 0-24-8-46.4-20.8-65.6-20.8-27.2-54.4-44.8-89.6-44.8zM534.4 841.6c-57.6 0-104-48-104-105.6s48-104 105.6-104c57.6 0 104 48 104 104 0 59.2-48 105.6-105.6 105.6 0 0 0 0 0 0zM492.8 718.4h-25.6l-4.8-14.4h-11.2l22.4 65.6h11.2l22.4-65.6h-11.2l-3.2 14.4zM489.6 726.4l-9.6 32-9.6-30.4h19.2zM556.8 732.8c1.6-3.2 3.2-6.4 3.2-11.2s-1.6-9.6-4.8-12.8c-4.8-3.2-9.6-4.8-14.4-4.8h-25.6v65.6h24c4.8 0 9.6-1.6 14.4-4.8 6.4-6.4 6.4-16 1.6-22.4-1.6-3.2-4.8-4.8-8-4.8 4.8 0 8-1.6 9.6-4.8zM524.8 742.4h12.8c3.2 0 6.4 0 8 3.2 1.6 1.6 3.2 4.8 3.2 8s-1.6 4.8-3.2 6.4c-1.6 1.6-4.8 3.2-8 3.2h-12.8v-20.8zM547.2 715.2c1.6 1.6 3.2 4.8 3.2 8s-1.6 6.4-3.2 8c-3.2 1.6-6.4 3.2-9.6 3.2h-12.8v-20.8h12.8c3.2-1.6 8 0 9.6 1.6v0zM606.4 704l-14.4 24-14.4-24h-11.2l19.2 33.6-19.2 32h11.2l14.4-24 12.8 24h11.2l-17.6-33.6 20.8-32h-12.8zM448 443.2h-44.8l-8-22.4h-19.2l38.4 104h19.2l38.4-104h-17.6l-6.4 22.4zM443.2 456l-17.6 49.6-17.6-49.6h35.2zM572.8 444.8c-4.8-8-11.2-14.4-19.2-19.2-9.6-4.8-19.2-6.4-30.4-6.4h-35.2v105.6h35.2c11.2 0 20.8-1.6 30.4-6.4 8-4.8 14.4-11.2 19.2-17.6 9.6-17.6 9.6-38.4 0-56zM552 444.8c14.4 16 14.4 40 0 56-8 6.4-19.2 11.2-28.8 9.6h-17.6v-75.2h17.6c9.6-1.6 20.8 3.2 28.8 9.6v0zM662.4 433.6c-3.2-4.8-6.4-8-11.2-11.2-6.4-3.2-12.8-4.8-19.2-4.8s-12.8 1.6-19.2 3.2c-4.8 1.6-9.6 6.4-14.4 11.2-3.2 4.8-4.8 9.6-6.4 16h19.2c1.6-9.6 9.6-17.6 19.2-17.6 4.8 0 8 1.6 12.8 4.8 3.2 3.2 4.8 6.4 4.8 11.2 0 3.2-1.6 6.4-3.2 9.6s-4.8 4.8-8 6.4c-3.2 1.6-8 3.2-12.8 4.8s-11.2 3.2-16 6.4c-4.8 1.6-8 4.8-11.2 9.6-6.4 9.6-6.4 20.8 0 30.4 3.2 4.8 6.4 8 12.8 9.6 4.8 3.2 11.2 4.8 17.6 4.8 9.6 0 19.2-1.6 25.6-8 6.4-4.8 9.6-12.8 11.2-20.8h-19.2c-1.6 9.6-9.6 14.4-17.6 14.4-4.8 0-8-1.6-11.2-3.2-3.2-3.2-4.8-6.4-4.8-11.2 0-3.2 1.6-6.4 3.2-9.6 1.6-1.6 4.8-4.8 8-6.4s8-3.2 12.8-4.8c4.8-1.6 11.2-3.2 16-6.4 4.8-1.6 8-4.8 11.2-9.6s4.8-9.6 4.8-16c0-3.2-1.6-8-4.8-12.8zM888 270.4c-11.2 0-20.8 9.6-22.4 20.8-1.6 6.4 0 12.8 3.2 17.6s8 8 14.4 9.6c6.4 1.6 11.2-1.6 16-4.8 4.8-4.8 8-9.6 8-16v0c3.2-12.8-4.8-24-17.6-27.2 0 0 0 0 0 0h-1.6zM886.4 312h-1.6c-4.8 0-8-3.2-9.6-6.4-3.2-3.2-3.2-8-3.2-12.8-1.6-8 4.8-16 14.4-17.6 8-1.6 16 4.8 17.6 14.4 0 3.2 0 6.4-1.6 8v0c0 4.8-3.2 8-6.4 11.2-3.2 1.6-6.4 3.2-9.6 3.2z" />
<glyph unicode="&#xe905;" glyph-name="shiled-alt" data-tags="shiled-alt" d="M514.048 81.408c-16.384 0-32.768 4.096-47.104 13.312-187.392 113.664-242.688 228.352-257.024 271.36-3.072 9.216-5.12 18.432-5.12 28.672v368.64c0 12.288 9.216 21.504 21.504 21.504h6.144l5.12-3.072c6.144-3.072 141.312-83.968 237.568 17.408 9.216 9.216 20.48 14.336 33.792 13.312 13.312 0 26.624-7.168 34.816-17.408 81.92-98.304 240.64-13.312 242.688-12.288l30.72 16.384v-397.312c0-14.336-3.072-29.696-10.24-41.984v0c-86.016-159.744-192.512-236.544-248.832-267.264-14.336-7.168-28.672-11.264-44.032-11.264zM245.76 732.672v-337.92c0-5.12 1.024-10.24 2.048-15.36 10.24-30.72 58.368-139.264 240.64-249.856 15.36-9.216 33.792-9.216 49.152-1.024 52.224 28.672 151.552 100.352 232.448 250.88v0c3.072 7.168 5.12 14.336 5.12 22.528v330.752c-57.344-23.552-184.32-59.392-263.168 36.864-1.024 2.048-3.072 3.072-5.12 3.072s-3.072-1.024-3.072-1.024c-89.088-93.184-203.776-61.44-258.048-38.912zM627.712 260.608h-282.624v48.128l7.168 2.048c34.816 10.24 56.32 27.648 64.512 50.176 6.144 18.432 1.024 34.816-1.024 36.864-12.288 11.264-18.432 33.792-21.504 51.2-11.264 1.024-20.48 7.168-25.6 19.456-7.168 17.408-4.096 44.032 10.24 58.368-20.48 80.896 8.192 117.76 35.84 134.144 39.936 23.552 95.232 15.36 118.784-2.048 23.552 1.024 41.984-5.12 54.272-18.432 28.672-30.72 20.48-88.064 16.384-115.712 0-1.024 0-1.024 0-2.048 15.36-14.336 16.384-39.936 8.192-58.368-5.12-12.288-14.336-19.456-24.576-20.48-4.096-23.552-11.264-32.768-22.528-49.152-4.096-14.336-3.072-25.6 1.024-36.864l-18.432-8.192c-7.168 15.36-7.168 33.792-2.048 52.224v2.048l2.048 2.048c13.312 17.408 17.408 24.576 20.48 49.152l1.024 12.288 12.288-4.096c5.12-2.048 10.24 7.168 11.264 9.216 6.144 12.288 5.12 29.696-6.144 36.864l-5.12 3.072 2.048 7.168c0 2.048 1.024 5.12 1.024 8.192 3.072 22.528 11.264 75.776-11.264 99.328-9.216 9.216-23.552 13.312-41.984 11.264h-5.12l-3.072 3.072c-13.312 13.312-63.488 22.528-98.304 3.072-31.744-19.456-40.96-59.392-25.6-117.76l2.048-7.168-6.144-4.096c-9.216-6.144-14.336-26.624-9.216-38.912 3.072-6.144 6.144-8.192 13.312-6.144l10.24 2.048 2.048-10.24c4.096-27.648 12.288-44.032 17.408-48.128 8.192-7.168 13.312-29.696 8.192-52.224s-22.528-51.2-72.704-67.584v-12.288h262.144v-21.504zM630.784 260.608c-34.816 0-63.488 28.672-63.488 63.488 0 15.36 5.12 28.672 14.336 39.936 12.288 14.336 30.72 23.552 49.152 23.552 20.48 0 39.936-10.24 52.224-26.624 8.192-11.264 12.288-23.552 12.288-36.864 0-35.84-28.672-63.488-64.512-63.488zM630.784 367.104c-12.288 0-25.6-6.144-33.792-16.384-6.144-7.168-9.216-16.384-9.216-26.624 0-23.552 19.456-43.008 43.008-43.008s43.008 19.456 43.008 43.008c0 9.216-3.072 17.408-8.192 24.576-7.168 11.264-20.48 18.432-34.816 18.432zM678.912 354.816l-10.24 1.024c0 2.048 0 5.12 0 7.168 0 26.624-16.384 48.128-37.888 48.128s-36.864-20.48-36.864-48.128c0-2.048 0-4.096 0-6.144l-10.24-1.024c0 2.048 0 4.096 0 6.144 0 32.768 21.504 58.368 48.128 58.368s48.128-26.624 48.128-58.368c-1.024-1.024-1.024-4.096-1.024-7.168zM630.784 285.184c-9.216 0-17.408 9.216-17.408 19.456s8.192 19.456 17.408 19.456 17.408-9.216 17.408-19.456-7.168-19.456-17.408-19.456zM630.784 313.856c-4.096 0-7.168-4.096-7.168-9.216s3.072-9.216 7.168-9.216 7.168 4.096 7.168 9.216-3.072 9.216-7.168 9.216z" />
<glyph unicode="&#xe906;" glyph-name="user" data-tags="user" d="M512 617.984v0c-41.984 0-77.824 27.648-89.088 68.608-2.048 7.168-3.072 15.36-3.072 22.528 0 24.576 9.216 47.104 26.624 64.512s39.936 26.624 64.512 26.624c0 0 0 0 0 0 41.984 0 77.824-27.648 89.088-68.608 2.048-7.168 3.072-15.36 3.072-22.528 0-50.176-40.96-91.136-91.136-91.136zM512 769.536c-16.384 0-31.744-6.144-43.008-17.408s-17.408-26.624-17.408-41.984c0-5.12 1.024-10.24 2.048-15.36 7.168-26.624 30.72-45.056 58.368-45.056v0c32.768 0 60.416 26.624 60.416 60.416 0 5.12-1.024 10.24-2.048 15.36-7.168 24.576-30.72 44.032-58.368 44.032 0 0 0 0 0 0zM475.136 98.816c-2.048 0-5.12 0-7.168 1.024-25.6 4.096-44.032 26.624-44.032 53.248v179.2c-32.768 4.096-58.368 32.768-58.368 66.56v150.528c0 36.864 29.696 67.584 67.584 67.584h158.72c36.864 0 66.56-29.696 67.584-66.56v-151.552c0-33.792-25.6-62.464-58.368-66.56v-179.2c0-26.624-19.456-50.176-44.032-53.248-16.384-2.048-32.768 3.072-44.032 14.336-11.264-10.24-23.552-15.36-37.888-15.36zM519.168 122.368c0 0 0 0 0 0s0 0 0 0zM432.128 586.24c-20.48 0-36.864-16.384-36.864-36.864v-150.528c0-20.48 16.384-36.864 36.864-36.864h21.504v-209.92c0-11.264 8.192-21.504 18.432-22.528 8.192-1.024 16.384 2.048 20.48 9.216 4.096 6.144 11.264 10.24 18.432 10.24 0 0 0 0 0 0 7.168 0 14.336-4.096 18.432-10.24 4.096-7.168 12.288-10.24 20.48-9.216 10.24 1.024 18.432 11.264 18.432 22.528v209.92h21.504c20.48 0 36.864 16.384 36.864 36.864v151.552c0 20.48-16.384 36.864-36.864 36.864h-6.144l-18.432-94.208h-49.152l-4.096 58.368-5.12-59.392h-49.152l-18.432 94.208h-7.168zM466.944 598.528l12.288-61.44 3.072 32.768c-2.048 7.168-5.12 13.312-8.192 21.504v0l-7.168 7.168zM540.672 569.856l3.072-32.768 12.288 61.44-6.144-6.144c-4.096-8.192-7.168-15.36-9.216-22.528zM509.952 586.24c1.024-2.048 1.024-4.096 2.048-6.144 1.024 2.048 1.024 4.096 2.048 6.144h-4.096zM729.088 617.984v0c-41.984 0-77.824 27.648-89.088 68.608-2.048 7.168-3.072 15.36-3.072 22.528 0 50.176 40.96 91.136 91.136 91.136 41.984 0 77.824-27.648 89.088-68.608 2.048-7.168 3.072-15.36 3.072-22.528 0-50.176-40.96-91.136-91.136-91.136zM729.088 769.536c-33.792 0-60.416-26.624-60.416-60.416 0-5.12 1.024-10.24 2.048-15.36 7.168-26.624 30.72-45.056 58.368-45.056h1.024c32.768 0 60.416 26.624 60.416 60.416 0 5.12-1.024 10.24-2.048 15.36-8.192 25.6-31.744 45.056-59.392 45.056zM692.224 98.816c-2.048 0-5.12 0-7.168 1.024-25.6 4.096-44.032 26.624-44.032 53.248v190.464l7.168 4.096c16.384 11.264 26.624 29.696 26.624 50.176v124.928h21.504l4.096 47.104c-2.048 7.168-4.096 13.312-8.192 21.504v1.024l-22.528 23.552h140.288c36.864 0 66.56-29.696 67.584-66.56v-151.552c0-33.792-25.6-62.464-58.368-66.56v-179.2c0-26.624-19.456-50.176-44.032-53.248-16.384-2.048-32.768 3.072-44.032 14.336-12.288-9.216-24.576-14.336-38.912-14.336zM671.744 328.192v-176.128c0-11.264 8.192-21.504 18.432-22.528 9.216-1.024 19.456 4.096 22.528 13.312 3.072 7.168 9.216 11.264 16.384 11.264s14.336-4.096 16.384-11.264c4.096-9.216 13.312-14.336 22.528-13.312 10.24 1.024 18.432 11.264 18.432 22.528v209.92h21.504c20.48 0 36.864 16.384 36.864 36.864v151.552c0 20.48-16.384 36.864-36.864 36.864h-6.144l-18.432-94.208h-49.152l-5.12 59.392-5.12-59.392h-18.432v-93.184c-1.024-28.672-13.312-54.272-33.792-71.68zM716.8 130.56c0 0 0 0 0 0s0 0 0 0zM757.76 569.856l3.072-32.768 12.288 61.44-6.144-6.144c-4.096-7.168-7.168-15.36-9.216-22.528zM727.040 586.24c1.024-2.048 1.024-4.096 2.048-6.144 1.024 2.048 1.024 4.096 2.048 6.144h-4.096zM294.912 617.984v0c-41.984 0-77.824 27.648-89.088 68.608-2.048 7.168-3.072 15.36-3.072 22.528 0 50.176 40.96 91.136 91.136 91.136 41.984 0 77.824-27.648 89.088-68.608 2.048-7.168 3.072-15.36 3.072-22.528 0-50.176-40.96-91.136-91.136-91.136zM294.912 769.536c-33.792 0-60.416-26.624-60.416-60.416 0-5.12 1.024-10.24 2.048-15.36 7.168-26.624 30.72-45.056 58.368-45.056h1.024c32.768 0 60.416 26.624 60.416 60.416 0 5.12-1.024 10.24-2.048 15.36-8.192 25.6-31.744 45.056-59.392 45.056zM258.048 98.816c-2.048 0-5.12 0-7.168 1.024-25.6 4.096-44.032 26.624-44.032 53.248v179.2c-32.768 4.096-58.368 32.768-58.368 66.56v150.528c0 36.864 29.696 67.584 67.584 67.584h141.312l-24.576-24.576c-3.072-7.168-7.168-15.36-8.192-22.528l4.096-47.104h21.504v-123.904c0-20.48 10.24-38.912 26.624-50.176l6.144-4.096v-191.488c0-26.624-19.456-50.176-44.032-53.248-16.384-2.048-32.768 3.072-44.032 14.336-10.24-10.24-22.528-15.36-36.864-15.36zM285.696 125.44c0 0 0 0 0 0s0 0 0 0zM215.040 586.24c-20.48 0-36.864-16.384-36.864-36.864v-150.528c0-20.48 16.384-36.864 36.864-36.864h21.504v-209.92c0-11.264 8.192-21.504 18.432-22.528 9.216-1.024 17.408 3.072 21.504 11.264 4.096 6.144 10.24 10.24 17.408 10.24 0 0 0 0 0 0 7.168 0 14.336-4.096 17.408-10.24 4.096-8.192 12.288-12.288 21.504-11.264 10.24 1.024 18.432 11.264 18.432 22.528v176.128c-20.48 17.408-32.768 43.008-32.768 70.656v93.184h-18.432l-5.12 59.392-5.12-59.392h-49.152l-18.432 94.208h-7.168zM249.856 598.528l12.288-61.44 3.072 32.768c-2.048 7.168-5.12 13.312-8.192 21.504v0l-7.168 7.168zM292.864 586.24c1.024-2.048 1.024-4.096 2.048-6.144 1.024 2.048 1.024 4.096 2.048 6.144h-4.096z" />
<glyph unicode="&#xe907;" glyph-name="paricle-alt" data-tags="paricle-alt" d="M608.256 93.696c-16.384 0-31.744 5.12-45.056 14.336-33.792 24.576-40.96 72.704-16.384 105.472 8.192 11.264 18.432 18.432 29.696 24.576l-10.24 67.584c-2.048-1.024-5.12-1.024-7.168-1.024-26.624-4.096-54.272 0-77.824 12.288l-33.792-46.080c10.24-12.288 16.384-26.624 19.456-41.984 7.168-47.104-25.6-91.136-72.704-98.304v0c-47.104-7.168-91.136 25.6-98.304 72.704-3.072 22.528 2.048 45.056 15.36 64.512 13.312 18.432 33.792 30.72 56.32 33.792 15.36 2.048 31.744 0 46.080-5.12l33.792 45.056c-21.504 20.48-35.84 47.104-39.936 76.8-3.072 17.408-2.048 33.792 2.048 50.176l-125.952 35.84c-8.192-13.312-19.456-25.6-33.792-33.792-46.080-27.648-106.496-12.288-134.144 33.792-13.312 22.528-17.408 49.152-11.264 73.728 6.144 25.6 22.528 47.104 45.056 60.416 46.080 27.648 106.496 12.288 134.144-33.792 11.264-19.456 15.36-40.96 13.312-61.44l128-36.864c2.048 4.096 5.12 7.168 7.168 11.264 19.456 25.6 45.056 43.008 74.752 50.176l-7.168 71.68c-11.264 2.048-23.552 7.168-32.768 15.36-36.864 27.648-45.056 80.896-17.408 117.76s80.896 45.056 117.76 17.408c36.864-27.648 45.056-80.896 17.408-117.76-11.264-15.36-26.624-25.6-44.032-30.72l7.168-69.632c24.576-1.024 50.176-10.24 71.68-25.6 18.432-14.336 33.792-31.744 43.008-52.224l70.656 26.624c-3.072 18.432-2.048 36.864 6.144 55.296 20.48 51.2 79.872 76.8 131.072 56.32v0c24.576-10.24 45.056-29.696 55.296-54.272s11.264-52.224 1.024-76.8c-10.24-24.576-29.696-45.056-54.272-55.296s-52.224-11.264-76.8-1.024c-19.456 8.192-35.84 21.504-46.080 37.888l-74.752-27.648c2.048-19.456 0-38.912-6.144-57.344l26.624-19.456c10.24 8.192 21.504 13.312 34.816 15.36 20.48 3.072 39.936-2.048 56.32-14.336s26.624-29.696 29.696-49.152c6.144-40.96-22.528-79.872-63.488-86.016s-79.872 22.528-86.016 63.488c-2.048 13.312 0 26.624 4.096 37.888l-21.504 15.36c0 0 0 0 0 0v0c-11.264-15.36-24.576-27.648-40.96-36.864l11.264-76.8c12.288-1.024 24.576-6.144 35.84-14.336 33.792-24.576 40.96-72.704 16.384-105.472-12.288-16.384-29.696-26.624-49.152-29.696-6.144-3.072-10.24-4.096-14.336-4.096zM609.28 204.288c-10.24 0-21.504-5.12-27.648-14.336-5.12-7.168-8.192-16.384-6.144-25.6 1.024-9.216 6.144-17.408 13.312-22.528 15.36-11.264 36.864-8.192 49.152 7.168 11.264 15.36 8.192 36.864-7.168 49.152-7.168 4.096-14.336 6.144-21.504 6.144zM380.928 260.608c-2.048 0-4.096 0-7.168-1.024-12.288-2.048-22.528-8.192-29.696-17.408-7.168-10.24-10.24-21.504-8.192-33.792 4.096-24.576 26.624-41.984 51.2-37.888v0c24.576 4.096 41.984 26.624 37.888 51.2-2.048 12.288-8.192 22.528-17.408 29.696-7.168 6.144-16.384 9.216-26.624 9.216zM739.328 350.72c-2.048 0-3.072 0-5.12 0-19.456-3.072-31.744-20.48-28.672-39.936s20.48-31.744 39.936-28.672c19.456 3.072 31.744 20.48 28.672 39.936v0c-1.024 9.216-6.144 17.408-13.312 22.528-7.168 4.096-13.312 6.144-21.504 6.144zM539.648 529.92c-28.672 0-56.32-13.312-74.752-37.888-14.336-19.456-20.48-44.032-17.408-68.608 4.096-24.576 16.384-46.080 36.864-60.416 19.456-14.336 44.032-20.48 68.608-17.408 24.576 4.096 46.080 16.384 60.416 36.864v0c14.336 19.456 20.48 44.032 17.408 68.608-4.096 24.576-16.384 46.080-36.864 60.416-15.36 12.288-34.816 18.432-54.272 18.432zM831.488 596.48c-23.552 0-46.080-14.336-55.296-37.888-12.288-30.72 2.048-65.536 32.768-77.824 14.336-6.144 30.72-6.144 46.080 0 14.336 6.144 26.624 17.408 31.744 32.768 6.144 15.36 6.144 30.72 0 46.080s-17.408 26.624-32.768 31.744v0c-7.168 4.096-15.36 5.12-22.528 5.12zM199.68 610.816c-10.24 0-19.456-3.072-28.672-8.192-13.312-8.192-22.528-20.48-25.6-34.816s-1.024-29.696 6.144-43.008c16.384-26.624 51.2-35.84 77.824-19.456s35.84 51.2 19.456 77.824c-10.24 17.408-29.696 27.648-49.152 27.648zM517.12 764.416c-13.312 0-26.624-6.144-34.816-17.408-7.168-9.216-10.24-20.48-8.192-31.744s7.168-21.504 17.408-28.672c19.456-14.336 46.080-10.24 60.416 9.216s10.24 46.080-9.216 60.416c-8.192 5.12-17.408 8.192-25.6 8.192z" />
<glyph unicode="&#xe908;" glyph-name="data-server" data-tags="data-server" d="M757.76 514.56h-31.744c-7.168 0-12.288 5.12-13.312 12.288l-3.072 19.456c-6.144 2.048-11.264 4.096-17.408 7.168l-16.384-12.288c-4.096-4.096-12.288-3.072-17.408 1.024l-22.528 22.528c-5.12 5.12-5.12 12.288-1.024 17.408l11.264 15.36c-3.072 5.12-5.12 11.264-7.168 17.408l-20.48 3.072c-6.144 1.024-11.264 6.144-11.264 13.312v31.744c0 7.168 5.12 12.288 12.288 13.312l19.456 3.072c2.048 6.144 4.096 11.264 7.168 17.408l-11.264 17.408c-4.096 5.12-3.072 12.288 1.024 17.408l22.528 22.528c5.12 5.12 12.288 5.12 17.408 1.024l15.36-11.264c5.12 3.072 11.264 5.12 17.408 7.168l3.072 20.48c1.024 6.144 6.144 11.264 13.312 11.264h32.768c7.168 0 12.288-5.12 13.312-12.288l3.072-19.456c6.144-2.048 12.288-4.096 17.408-7.168l16.384 12.288c4.096 4.096 12.288 3.072 17.408-1.024l22.528-22.528c5.12-5.12 5.12-12.288 1.024-17.408l-11.264-15.36c3.072-5.12 5.12-11.264 7.168-17.408l20.48-3.072c6.144-1.024 11.264-6.144 11.264-13.312v-31.744c0-7.168-5.12-12.288-12.288-13.312l-19.456-3.072c-2.048-6.144-4.096-12.288-7.168-17.408l12.288-16.384c4.096-5.12 3.072-12.288-1.024-17.408l-22.528-22.528c-5.12-5.12-12.288-5.12-17.408-1.024l-15.36 11.264c-5.12-3.072-11.264-5.12-17.408-7.168l-3.072-20.48c-3.072-7.168-8.192-12.288-15.36-12.288zM750.592 528.896c0 0 0 0 0 0v0zM733.184 529.92v0c0-1.024 0 0 0 0zM732.16 535.040h19.456l3.072 17.408c1.024 6.144 5.12 10.24 11.264 12.288s13.312 4.096 18.432 8.192c5.12 3.072 11.264 3.072 16.384-1.024l14.336-10.24 14.336 14.336-10.24 14.336c-3.072 5.12-4.096 11.264-1.024 16.384 3.072 6.144 6.144 12.288 8.192 18.432s6.144 10.24 12.288 11.264l17.408 3.072v19.456l-17.408 3.072c-6.144 1.024-10.24 5.12-12.288 11.264s-4.096 13.312-8.192 18.432c-3.072 5.12-3.072 11.264 1.024 16.384l10.24 14.336-14.336 12.288-14.336-10.24c-5.12-3.072-11.264-4.096-16.384-1.024-6.144 3.072-12.288 6.144-18.432 8.192s-10.24 6.144-11.264 12.288l-3.072 17.408h-19.456l-3.072-17.408c-1.024-6.144-5.12-10.24-11.264-12.288-7.168-2.048-13.312-4.096-18.432-8.192-5.12-3.072-12.288-2.048-16.384 1.024l-14.336 10.24-13.312-13.312 10.24-14.336c3.072-5.12 4.096-11.264 1.024-16.384-3.072-6.144-6.144-12.288-8.192-18.432s-6.144-10.24-12.288-11.264l-17.408-3.072v-19.456l17.408-3.072c6.144-1.024 10.24-5.12 12.288-11.264s4.096-13.312 8.192-18.432c3.072-5.12 2.048-12.288-1.024-16.384l-10.24-14.336 14.336-14.336 14.336 10.24c5.12 3.072 11.264 4.096 16.384 1.024 6.144-3.072 12.288-6.144 18.432-8.192s10.24-6.144 11.264-12.288l2.048-16.384zM771.072 544.256c0 0 0 0 0 0s0 0 0 0zM775.168 548.352v0c0 0 0 0 0 0zM794.624 554.496c0 0 0 0 0 0s0 0 0 0zM789.504 554.496c0 0 0 0 0 0v0zM664.576 557.568c-1.024 0-1.024 0 0 0v0zM819.2 557.568v0c0 0 0 0 0 0zM832.512 569.856c0 0 0 0 0 0v0zM652.288 570.88v0c0-1.024 0 0 0 0zM648.192 600.576c0 0 0 0 0 0v0zM861.184 639.488c-1.024 0-1.024-1.024 0 0v0zM622.592 639.488v0c0 0 0 0 0 0zM861.184 656.896c0 0 1.024 0 1.024 0h-1.024zM623.616 656.896v0c0 0 0 0 0 0zM841.728 680.448v0c0 0 0 0 0 0zM643.072 680.448c-1.024 0-1.024 0 0 0v0zM832.512 725.504c0 0 0 0 0 0v0zM651.264 726.528v0c0-1.024 0 0 0 0zM664.576 737.792c0 0 0 0 0 0v0zM820.224 738.816v0c0-1.024 0 0 0 0zM673.792 738.816v0c0 0 0 0 0 0zM789.504 740.864c0 0 0 0 0 0v0zM695.296 741.888v0c0 0 0 0 0 0zM794.624 741.888c0 0 0 0 0 0s0 0 0 0zM771.072 751.104c0 0 0 0 0 0s0 0 0 0zM750.592 766.464c0 0 0 0 0 0v0zM733.184 767.488v0c0 0 0 0 0 0zM742.4 595.456c-28.672 0-53.248 23.552-53.248 53.248s23.552 53.248 53.248 53.248 53.248-23.552 53.248-53.248-24.576-53.248-53.248-53.248zM742.4 680.448c-17.408 0-32.768-14.336-32.768-32.768 0-17.408 14.336-32.768 32.768-32.768s32.768 14.336 32.768 32.768c-1.024 18.432-15.36 32.768-32.768 32.768zM464.896 111.104c-128 0-244.736 29.696-302.080 79.872l-7.168 6.144v427.008c-2.048 3.072-2.048 7.168-2.048 10.24 0 69.632 155.648 106.496 310.272 106.496 51.2 0 101.376-4.096 146.432-11.264l-7.168-39.936c-41.984 7.168-90.112 11.264-139.264 11.264-174.080 0-269.312-43.008-269.312-65.536s95.232-65.536 269.312-65.536c53.248 0 104.448 4.096 148.48 12.288l7.168-39.936c-47.104-8.192-100.352-13.312-155.648-13.312-105.472 0-210.944 17.408-267.264 50.176v-86.016c68.608-40.96 303.104-109.568 548.864-5.12l28.672 12.288v-301.056l-7.168-7.168c-60.416-55.296-200.704-73.728-206.848-74.752-31.744-4.096-64.512-6.144-95.232-6.144zM195.584 216.576c66.56-50.176 215.040-74.752 359.424-58.368 34.816 4.096 132.096 23.552 178.176 58.368v84.992c-69.632-31.744-180.224-45.056-186.368-45.056-201.728-16.384-296.96 18.432-350.208 46.080v-86.016zM195.584 348.672c46.080-25.6 131.072-69.632 347.136-52.224 37.888 4.096 143.36 21.504 190.464 51.2v90.112c-231.424-87.040-445.44-35.84-536.576 8.192v-97.28z" />
</font></defs></svg>