<?xml version="1.0" standalone="no"?>
<!DOCTYPE svg PUBLIC "-//W3C//DTD SVG 1.1//EN" "http://www.w3.org/Graphics/SVG/1.1/DTD/svg11.dtd" >
<svg xmlns="http://www.w3.org/2000/svg">
<metadata>
<json>
<![CDATA[
{
	"fontFamily": "Ikon-Crypto",
	"majorVersion": 1,
	"minorVersion": 0,
	"copyright": "Softnio",
	"fontURL": "http://softnio.com/",
	"designer": "SoftNio Team",
	"designerURL": "http://softnio.com/",
	"license": "GPL 3",
	"licenseURL": "https://www.gnu.org/licenses/gpl-3.0.en.html",
	"description": "Font Icons for crypto currency related templates.\nFont generated by IcoMoon.",
	"version": "Version 1.0",
	"fontId": "Ikon-Crypto",
	"psName": "Ikon-Crypto",
	"subFamily": "Regular",
	"fullName": "Ikon-Crypto"
}
]]>
</json>
</metadata>
<defs>
<font id="Ikon-Crypto" horiz-adv-x="1024">
<font-face units-per-em="1024" ascent="960" descent="-64" />
<missing-glyph horiz-adv-x="1024" />
<glyph unicode="&#x20;" horiz-adv-x="512" d="" />
<glyph unicode="&#xe900;" glyph-name="shiled" data-tags="shiled" d="M638.4 67.2h-355.2c-32 0-57.6 25.6-57.6 57.6v660.8c0 32 25.6 57.6 57.6 57.6h355.2c32 0 57.6-25.6 57.6-57.6v-224h-24v224c0 19.2-14.4 33.6-33.6 33.6h-355.2c-19.2 0-33.6-14.4-33.6-33.6v-660.8c0-19.2 14.4-33.6 33.6-33.6h355.2c19.2 0 33.6 14.4 33.6 33.6v52.8h24v-52.8c0-32-25.6-57.6-57.6-57.6zM236.8 260.8h347.2v-24h-347.2v24zM451.2 113.6c-28.8 0-52.8 24-52.8 52.8s24 52.8 52.8 52.8 52.8-24 52.8-52.8-24-52.8-52.8-52.8zM451.2 195.2c-16 0-28.8-12.8-28.8-28.8s12.8-28.8 28.8-28.8 28.8 12.8 28.8 28.8-12.8 28.8-28.8 28.8zM704 310.4c-6.4 0-14.4 3.2-19.2 9.6v0l-25.6 35.2c-6.4 9.6-4.8 24 4.8 30.4l38.4 30.4c4.8 3.2 11.2 6.4 17.6 4.8 6.4 0 11.2-3.2 16-9.6l28.8-38.4c3.2-4.8 4.8-11.2 4.8-17.6-1.6-6.4-4.8-11.2-9.6-14.4l-41.6-27.2c-6.4-1.6-11.2-3.2-14.4-3.2zM697.6 329.6c1.6-3.2 6.4-3.2 9.6-1.6l41.6 27.2c1.6 1.6 3.2 3.2 3.2 4.8s0 3.2-1.6 4.8l-28.8 38.4c-1.6 1.6-3.2 1.6-4.8 3.2-1.6 0-3.2 0-4.8-1.6l-38.4-30.4c-3.2-1.6-3.2-6.4-1.6-9.6l25.6-35.2zM374.4 318.4l-56 116.8c-4.8 9.6-6.4 19.2-6.4 28.8 0 35.2 28.8 64 64 64s64-28.8 64-64c0-9.6-1.6-19.2-6.4-28.8l-59.2-116.8zM374.4 515.2c-28.8 0-51.2-22.4-51.2-51.2 0-8 1.6-16 4.8-22.4l46.4-94.4 46.4 94.4c3.2 8 4.8 14.4 4.8 22.4 1.6 27.2-22.4 51.2-51.2 51.2zM374.4 425.6c-20.8 0-38.4 17.6-38.4 38.4s17.6 38.4 38.4 38.4c20.8 0 38.4-17.6 38.4-38.4 0-22.4-17.6-38.4-38.4-38.4zM374.4 489.6c-14.4 0-25.6-11.2-25.6-25.6s11.2-25.6 25.6-25.6 25.6 11.2 25.6 25.6-11.2 25.6-25.6 25.6zM571.2 579.2l-36.8 76.8c-3.2 6.4-4.8 12.8-4.8 19.2 0 22.4 19.2 41.6 41.6 41.6s41.6-19.2 41.6-41.6c0-6.4-1.6-12.8-4.8-19.2l-36.8-76.8zM571.2 704c-16 0-28.8-12.8-28.8-28.8 0-4.8 1.6-9.6 3.2-12.8l25.6-54.4 25.6 54.4c1.6 4.8 3.2 8 3.2 12.8 0 14.4-12.8 28.8-28.8 28.8zM571.2 648c-14.4 0-25.6 11.2-25.6 25.6s11.2 25.6 25.6 25.6c14.4 0 25.6-11.2 25.6-25.6s-12.8-25.6-25.6-25.6zM571.2 688c-8 0-12.8-6.4-12.8-12.8s6.4-12.8 12.8-12.8 12.8 6.4 12.8 12.8-6.4 12.8-12.8 12.8zM387.2 328l38.4 80h6.4c17.6 1.6 27.2 4.8 41.6 16 4.8 3.2 11.2 14.4 16 24l11.2-4.8c-3.2-8-11.2-22.4-19.2-27.2-16-12.8-28.8-16-46.4-17.6l-27.2-56c9.6 0 17.6 1.6 28.8 4.8 19.2 4.8 36.8 11.2 51.2 20.8 12.8 8 25.6 19.2 33.6 32 1.6 1.6 3.2 4.8 4.8 6.4l11.2-6.4c-1.6-3.2-3.2-4.8-4.8-8-9.6-14.4-22.4-25.6-36.8-35.2-16-9.6-33.6-17.6-54.4-22.4-16-3.2-24-4.8-41.6-6.4h-12.8zM536 457.6c0 1.6 0 3.2 0 4.8 0 3.2 0 4.8 0 6.4 0 3.2-1.6 6.4-1.6 9.6-1.6 6.4-3.2 12.8-4.8 19.2-1.6 3.2-3.2 6.4-4.8 11.2s-4.8 9.6-6.4 16c-6.4 17.6 3.2 32 6.4 38.4 3.2 4.8 6.4 8 11.2 12.8v0c-19.2-8-43.2-22.4-41.6-54.4 0-6.4 1.6-11.2 3.2-17.6 1.6-3.2 1.6-4.8 1.6-8l-11.2-3.2c0 3.2-1.6 4.8-1.6 8-1.6 6.4-4.8 14.4-4.8 20.8-1.6 48 44.8 64 62.4 70.4l8 3.2 3.2-4.8c1.6-1.6 1.6-3.2 3.2-4.8l3.2-4.8-4.8-3.2c-6.4-4.8-8-6.4-11.2-9.6l-1.6-1.6c-4.8-4.8-8-8-9.6-11.2-3.2-4.8-9.6-14.4-4.8-27.2 1.6-4.8 3.2-9.6 4.8-14.4 1.6-3.2 3.2-8 4.8-11.2 1.6-6.4 4.8-12.8 6.4-20.8 0-3.2 1.6-8 1.6-11.2 0-1.6 0-4.8 0-8 0-1.6 0-3.2 0-4.8h-11.2zM696 209.6c-19.2 0-40 4.8-62.4 17.6-1.6 1.6-3.2 1.6-4.8 3.2l-80 80c-8 8-8 19.2 0 27.2l3.2 3.2c8 8 19.2 8 27.2 0l51.2-51.2c0 0 1.6-1.6 1.6-1.6v0c0 0 1.6 0 1.6 1.6 1.6 1.6 1.6 3.2 0 4.8l-160 160c-8 8-8 19.2 0 27.2l11.2 11.2c3.2 3.2 8 4.8 12.8 4.8 0 0 0 0 0 0 4.8 0 9.6-1.6 12.8-6.4l64-65.6c0 0 1.6-1.6 1.6-1.6v0c0 0 1.6 0 1.6 1.6l17.6 17.6c3.2 3.2 8 4.8 12.8 4.8 0 0 0 0 0 0 4.8 0 9.6-1.6 12.8-4.8l17.6-17.6c1.6-1.6 3.2-1.6 4.8 0s1.6 3.2 0 4.8l-16 19.2c-6.4 8-6.4 17.6 0 25.6l11.2 11.2c3.2 3.2 8 6.4 14.4 6.4 0 0 0 0 0 0 4.8 0 9.6-1.6 14.4-6.4l11.2-12.8c1.6-1.6 3.2-1.6 3.2 0l27.2 20.8c6.4 4.8 16 4.8 24 0 25.6-20.8 105.6-94.4 89.6-192 0-3.2-1.6-6.4-4.8-9.6-20.8-32-62.4-81.6-121.6-83.2zM566.4 331.2c0 0-1.6 0-1.6-1.6l-4.8-1.6c-1.6-1.6-1.6-3.2 0-4.8l80-80c75.2-43.2 124.8 4.8 169.6 59.2 0 0 0 1.6 0 1.6 14.4 89.6-60.8 158.4-84.8 177.6-1.6 1.6-3.2 0-3.2 0l-27.2-20.8c-8-6.4-19.2-4.8-25.6 1.6l-11.2 12.8c0 1.6-1.6 1.6-1.6 1.6s-1.6 0-1.6-1.6l-9.6-11.2c-1.6-1.6-1.6-3.2 0-3.2l16-19.2c6.4-8 6.4-19.2-1.6-25.6-8-8-19.2-8-27.2 0l-17.6 17.6c0 0-1.6 1.6-1.6 1.6s-1.6 0-1.6-1.6l-19.2-17.6c-3.2-3.2-8-6.4-12.8-4.8-4.8 0-9.6 1.6-12.8 6.4l-64 65.6c0 0-1.6 1.6-1.6 1.6s-1.6 0-1.6-1.6l-11.2-11.2c-1.6-1.6-1.6-3.2 0-4.8l160-160c8-8 8-19.2 0-27.2-3.2-3.2-8-4.8-12.8-4.8 0 0 0 0 0 0-4.8 0-9.6 1.6-12.8 4.8l-51.2 51.2c-4.8 0-4.8 0-4.8 0z" />
<glyph unicode="&#xe901;" glyph-name="id-card" data-tags="id-card" d="M766.4 76.8h-478.4c-41.6 0-76.8 33.6-76.8 76.8v249.6c0 41.6 33.6 76.8 76.8 76.8h476.8c41.6 0 76.8-33.6 76.8-76.8v-249.6c0-43.2-33.6-76.8-75.2-76.8zM288 454.4c-28.8 0-51.2-24-51.2-51.2v-249.6c0-28.8 24-51.2 51.2-51.2h476.8c28.8 0 51.2 24 51.2 51.2v249.6c0 28.8-24 51.2-51.2 51.2h-476.8zM304 230.4h108.8v-24h-108.8v24zM467.2 230.4h116.8v-24h-116.8v24zM638.4 230.4h112v-24h-112v24zM304 169.6h132.8v-24h-132.8v24zM486.4 169.6h110.4v-24h-110.4v24zM337.6 278.4h-1.6c-20.8 0-36.8 16-36.8 36.8v54.4c0 20.8 16 36.8 36.8 36.8h3.2c20.8 0 36.8-16 36.8-36.8v-54.4c-1.6-20.8-17.6-36.8-38.4-36.8zM336 382.4c-6.4 0-12.8-6.4-12.8-12.8v-54.4c0-6.4 6.4-12.8 12.8-12.8h3.2c6.4 0 12.8 6.4 12.8 12.8v54.4c0 6.4-6.4 12.8-12.8 12.8h-3.2zM440 278.4h-48c-22.4 0-40 17.6-40 40v48c0 22.4 17.6 40 40 40h48c22.4 0 40-17.6 40-40v-48c0-22.4-17.6-40-40-40zM392 382.4c-9.6 0-16-8-16-16v-48c0-9.6 8-16 16-16h48c9.6 0 16 8 16 16v48c0 9.6-8 16-16 16h-48zM524.8 384h166.4v-24h-166.4v24zM524.8 321.6h105.6v-24h-105.6v24zM552 516.8c-3.2 0-6.4 1.6-8 3.2-4.8 4.8-4.8 12.8 0 17.6l163.2 163.2c4.8 4.8 12.8 4.8 17.6 0s4.8-12.8 0-17.6l-164.8-163.2c-3.2-1.6-4.8-3.2-8-3.2zM273.6 529.6l14.4 81.6h120c57.6 0 73.6 22.4 81.6 46.4 3.2 8 9.6 36.8 9.6 52.8 0 12.8-3.2 22.4-8 28.8-8 9.6-25.6 12.8-51.2 12.8h-128l14.4 81.6h137.6c51.2 0 88-12.8 108.8-38.4 22.4-27.2 27.2-65.6 17.6-121.6-11.2-64-41.6-108.8-88-129.6-22.4-9.6-41.6-16-88-16h-140.8zM412.8 553.6c41.6 0 59.2 4.8 78.4 12.8 38.4 17.6 64 56 75.2 113.6 9.6 48 4.8 81.6-12.8 102.4-16 20.8-46.4 30.4-91.2 30.4h-116.8l-6.4-35.2h99.2c32 0 54.4-6.4 68.8-20.8 11.2-11.2 16-25.6 16-46.4s-8-51.2-11.2-59.2c-9.6-27.2-30.4-62.4-104-62.4h-100.8l-6.4-35.2h112zM222.4 641.6l3.2 14.4c0 0 1.6 8 4.8 24 3.2 12.8 11.2 43.2 52.8 43.2h144l-3.2-14.4c0 0-1.6-8-4.8-24-3.2-12.8-11.2-43.2-52.8-43.2h-144zM364.8 664c24 0 25.6 12.8 28.8 25.6 1.6 3.2 1.6 6.4 1.6 9.6h-115.2c-24 0-25.6-12.8-28.8-25.6-1.6-3.2-1.6-6.4-1.6-9.6h115.2z" />
<glyph unicode="&#xe902;" glyph-name="paricle" data-tags="paricle" d="M824 68.8h-400c-30.4 0-56 24-56 52.8v126.4h24v-126.4c0-16 14.4-28.8 32-28.8h400c17.6 0 32 12.8 32 28.8v668.8c0 16-14.4 28.8-32 28.8h-400c-17.6 0-32-12.8-32-28.8v-6.4h-24v6.4c0 28.8 25.6 52.8 56 52.8h400c30.4 0 56-24 56-52.8v-668.8c0-28.8-24-52.8-56-52.8zM758.4 179.2h-308.8c-24 0-43.2 19.2-43.2 43.2v20.8h24v-20.8c0-11.2 9.6-19.2 19.2-19.2h308.8c11.2 0 19.2 8 19.2 19.2v497.6c0 11.2-9.6 19.2-19.2 19.2h-169.6v24h169.6c24 0 43.2-19.2 43.2-43.2v-499.2c0-22.4-19.2-41.6-43.2-41.6zM523.2 310.4l-348.8 6.4v409.6c0 30.4 0 72 62.4 72h315.2l6.4-16-6.4-4.8c-3.2-1.6-27.2-24-27.2-67.2v-400zM198.4 340.8l300.8-4.8v372.8c0 28.8 9.6 51.2 19.2 65.6h-281.6c-35.2 0-38.4-11.2-38.4-48v-385.6zM595.2 235.2h-304c-44.8 0-44.8 27.2-44.8 57.6v36.8h24v-36.8c0-32 0-33.6 20.8-33.6h280v492.8c0 4.8 0 20.8-6.4 22.4-11.2 1.6-30.4-16-33.6-22.4 0 0 0 0 0 1.6l-24-3.2c-1.6 14.4 16 28.8 25.6 36.8 16 11.2 32 12.8 43.2 8 12.8-6.4 17.6-20.8 17.6-43.2v-516.8zM614.4 216c-17.6 0-33.6 8-41.6 24l20.8 11.2c8-12.8 20.8-12.8 25.6-11.2 11.2 1.6 22.4 9.6 25.6 24 4.8 24 3.2 264 0 427.2h-60.8v24h84.8v-11.2c0-41.6 6.4-408 0-443.2-4.8-22.4-22.4-40-44.8-43.2-3.2-1.6-6.4-1.6-9.6-1.6zM736 347.2h-89.6l-3.2 347.2c0 6.4 3.2 12.8 8 17.6s12.8 4.8 19.2 3.2c43.2-11.2 67.2-40 65.6-78.4-1.6-43.2 0-275.2 0-278.4v-11.2zM670.4 371.2h41.6c0 49.6-1.6 228.8 0 267.2 1.6 32-22.4 46.4-44.8 52.8l3.2-320zM560 139.2h99.2v-24h-99.2v24zM225.6 696h100.8v-12.8h-100.8v12.8zM406.4 696h46.4v-12.8h-46.4v12.8zM406.4 665.6h46.4v-12.8h-46.4v12.8zM406.4 635.2h46.4v-12.8h-46.4v12.8zM406.4 604.8h46.4v-12.8h-46.4v12.8zM406.4 574.4h46.4v-12.8h-46.4v12.8zM406.4 521.6h46.4v-12.8h-46.4v12.8zM406.4 491.2h46.4v-12.8h-46.4v12.8zM225.6 665.6h65.6v-12.8h-65.6v12.8zM225.6 635.2h100.8v-12.8h-100.8v12.8zM225.6 604.8h59.2v-12.8h-59.2v12.8zM225.6 574.4h88v-12.8h-88v12.8zM225.6 521.6h68.8v-12.8h-68.8v12.8zM225.6 491.2h113.6v-12.8h-113.6v12.8zM225.6 430.4h100.8v-32h-100.8v32zM363.2 401.6c-1.6-1.6-1.6-3.2-4.8-3.2-1.6-1.6-4.8-1.6-6.4-1.6v-3.2h-1.6v3.2c-3.2 0-6.4 1.6-8 3.2s-3.2 4.8-3.2 6.4h8c0-1.6 0-1.6 1.6-3.2 0 0 1.6-1.6 1.6-1.6v8c0 0-1.6 0-1.6 0-1.6 0-4.8 1.6-6.4 1.6s-3.2 1.6-3.2 3.2c-1.6 1.6-1.6 3.2-1.6 4.8s0 3.2 1.6 4.8c1.6 1.6 3.2 3.2 4.8 3.2s3.2 1.6 6.4 1.6v3.2h1.6v-3.2c3.2 0 6.4-1.6 8-3.2s3.2-4.8 3.2-6.4h-8c0 1.6 0 1.6-1.6 1.6 0 0-1.6 1.6-1.6 1.6v-8h1.6c1.6 0 4.8-1.6 4.8-1.6 1.6 0 3.2-1.6 3.2-3.2 1.6-1.6 1.6-3.2 1.6-4.8 1.6 0 1.6-1.6 0-3.2zM348.8 419.2c0 0 1.6-1.6 3.2-1.6v6.4c-1.6 0-1.6 0-3.2-1.6 0 0-1.6-1.6-1.6-1.6s0 0 1.6-1.6zM355.2 404.8c0 0 1.6 1.6 1.6 1.6 0 1.6 0 1.6-1.6 1.6 0 0-1.6 1.6-3.2 1.6v-6.4c1.6 0 3.2 0 3.2 1.6zM368 422.4v8h12.8v-33.6h-8v25.6h-4.8zM400 420.8c0 3.2-1.6 3.2-3.2 3.2s-1.6 0-3.2-1.6c0-1.6-1.6-1.6-1.6-4.8h-8c0 4.8 1.6 6.4 3.2 9.6 1.6 1.6 4.8 3.2 8 3.2s6.4-1.6 8-3.2c1.6-1.6 3.2-4.8 3.2-6.4 0-3.2-1.6-6.4-3.2-9.6-3.2-3.2-4.8-6.4-9.6-8h12.8v-6.4h-24v6.4c12.8 8 17.6 12.8 17.6 17.6zM420.8 404.8v-8h-8v8h8zM448 424h-14.4v-6.4c0 0 1.6 1.6 3.2 1.6s3.2 0 3.2 0 4.8 0 6.4-1.6 1.6-1.6 1.6-3.2c0-1.6 1.6-3.2 1.6-4.8 0-3.2-1.6-6.4-3.2-8s-4.8-3.2-8-3.2c-3.2 0-4.8 0-6.4 1.6s-3.2 1.6-4.8 3.2c-1.6 1.6-1.6 3.2-1.6 4.8h8c0-1.6 0-1.6 1.6-3.2 0 0 1.6-1.6 3.2-1.6s3.2 0 3.2 1.6 1.6 1.6 1.6 3.2 0 3.2-1.6 3.2c0 0-1.6 1.6-3.2 1.6s-1.6 0-3.2 0c0 0-1.6-1.6-1.6-1.6h-8v20.8h22.4v-8zM475.2 425.6l-11.2-27.2h-8l12.8 27.2h-14.4v6.4h22.4v-6.4z" />
<glyph unicode="&#xe903;" glyph-name="target" data-tags="target" d="M537.6 124.8c-105.6 0-192 86.4-192 192s86.4 192 192 192c105.6 0 192-86.4 192-192s-86.4-192-192-192zM537.6 486.4c-92.8 0-168-75.2-168-168s75.2-168 168-168c92.8 0 168 75.2 168 168s-75.2 168-168 168zM537.6 67.2c-137.6 0-249.6 112-249.6 249.6s112 249.6 249.6 249.6c137.6 0 249.6-112 249.6-249.6s-112-249.6-249.6-249.6zM537.6 544c-124.8 0-225.6-100.8-225.6-225.6s100.8-225.6 225.6-225.6c124.8 0 225.6 100.8 225.6 225.6s-100.8 225.6-225.6 225.6zM608 587.2h-148.8v75.2h148.8v-75.2zM483.2 611.2h100.8v27.2h-100.8v-27.2zM521.6 600h24v-44.8h-24v44.8zM534.4 272c-3.2 0-6.4 1.6-8 3.2l-76.8 76.8c-4.8 4.8-4.8 12.8 0 17.6s12.8 4.8 17.6 0l76.8-76.8c4.8-4.8 4.8-12.8 0-17.6-3.2-1.6-6.4-3.2-9.6-3.2zM534.4 272c-3.2 0-6.4 1.6-8 3.2-4.8 4.8-4.8 12.8 0 17.6l102.4 102.4c4.8 4.8 12.8 4.8 17.6 0s4.8-12.8 0-17.6l-102.4-102.4c-3.2-1.6-6.4-3.2-9.6-3.2zM702.4 476.8c-3.2 0-6.4 1.6-8 3.2-4.8 4.8-4.8 12.8 0 17.6l35.2 35.2c4.8 4.8 12.8 4.8 17.6 0s4.8-12.8 0-17.6l-35.2-35.2c-3.2-3.2-6.4-3.2-9.6-3.2zM776 584c-3.2 0-6.4 1.6-8 3.2-4.8 4.8-4.8 12.8 0 17.6l65.6 65.6c4.8 4.8 12.8 4.8 17.6 0s4.8-12.8 0-17.6l-67.2-65.6c-3.2-1.6-4.8-3.2-8-3.2zM664 673.6c-3.2 0-6.4 1.6-8 3.2-4.8 4.8-4.8 12.8 0 17.6l52.8 52.8c4.8 4.8 12.8 4.8 17.6 0s4.8-12.8 0-17.6l-54.4-52.8c-1.6-3.2-4.8-3.2-8-3.2zM406.4 675.2c-3.2 0-6.4 1.6-8 3.2l-60.8 60.8c-4.8 4.8-4.8 12.8 0 17.6s12.8 4.8 17.6 0l60.8-60.8c4.8-4.8 4.8-12.8 0-17.6-3.2-1.6-6.4-3.2-9.6-3.2zM299.2 572.8c-1.6 0-4.8 0-6.4 1.6l-91.2 60.8c-4.8 3.2-6.4 11.2-3.2 16s11.2 6.4 16 3.2l91.2-60.8c4.8-3.2 6.4-11.2 3.2-16-1.6-3.2-4.8-4.8-9.6-4.8zM264 444.8h-97.6c-6.4 0-12.8 4.8-12.8 12.8s4.8 12.8 12.8 12.8h97.6c6.4 0 12.8-4.8 12.8-12.8s-6.4-12.8-12.8-12.8zM888 444.8h-80c-6.4 0-12.8 4.8-12.8 12.8s4.8 12.8 12.8 12.8h80c6.4 0 12.8-4.8 12.8-12.8s-6.4-12.8-12.8-12.8zM534.4 705.6c-6.4 0-12.8 4.8-12.8 12.8v113.6c0 6.4 4.8 12.8 12.8 12.8s12.8-4.8 12.8-12.8v-115.2c-1.6-6.4-6.4-11.2-12.8-11.2z" />
<glyph unicode="&#xe904;" glyph-name="connect" data-tags="connect" d="M556.8 288c-19.2 0-43.2 4.8-51.2 36.8v46.4c0 4.8 4.8 9.6 9.6 9.6 3.2 0 6.4-1.6 8-1.6v49.6c0 4.8 4.8 9.6 9.6 9.6h6.4c3.2 0 4.8-1.6 6.4-3.2s3.2-4.8 3.2-6.4v-32h8c3.2 0 6.4-1.6 9.6-4.8 1.6 3.2 4.8 4.8 8 4.8h6.4c3.2 0 4.8-1.6 8-3.2 1.6-1.6 3.2-4.8 3.2-8v-4.8l11.2-1.6c4.8 0 8-4.8 9.6-9.6 1.6-12.8 3.2-54.4-28.8-76.8-1.6-1.6-3.2-1.6-4.8-1.6-9.6-1.6-16-3.2-22.4-3.2zM516.8 336v-9.6c8-28.8 32-28.8 57.6-25.6 24 17.6 24 51.2 22.4 64l-11.2 1.6c-4.8 0-9.6 4.8-9.6 11.2v4.8h-1.6v-8c0-4.8-4.8-9.6-9.6-9.6-6.4 0-9.6 4.8-9.6 9.6v8h-8c-3.2 0-4.8 1.6-6.4 3.2s-3.2 4.8-3.2 6.4v32h-1.6v-81.6c0-4.8-4.8-9.6-9.6-9.6s-8 1.6-9.6 3.2zM595.2 366.4v0 0zM532.8 424v0c0 0 0 0 0 0zM657.6 99.2c-174.4 0-406.4 1.6-473.6 1.6-12.8 0-25.6 6.4-36.8 17.6-9.6 11.2-14.4 25.6-14.4 38.4l43.2 315.2c3.2 22.4 20.8 40 44.8 40v-24c-11.2 0-19.2-8-20.8-19.2l-40-315.2c0-6.4 1.6-12.8 8-19.2 4.8-6.4 12.8-9.6 19.2-9.6 241.6-1.6 654.4-1.6 672 0 22.4 3.2 32 12.8 36.8 33.6 6.4 107.2-24 244.8-36.8 304l-3.2 12.8c-1.6 8-16 14.4-27.2 14.4v22.4c22.4 0 46.4-11.2 51.2-32l3.2-12.8c12.8-60.8 44.8-200 38.4-312-6.4-32-25.6-49.6-57.6-54.4-11.2 0-97.6-1.6-206.4-1.6zM670.4 168c-174.4 0-409.6 1.6-478.4 1.6-12.8 0-25.6 4.8-33.6 14.4s-12.8 22.4-11.2 35.2l30.4 252.8c3.2 22.4 22.4 40 44.8 40h142.4v-24h-140.8c-11.2 0-19.2-8-20.8-19.2l-30.4-252.8c0-6.4 1.6-11.2 4.8-16s9.6-6.4 16-6.4c241.6-1.6 654.4-1.6 673.6 0 8 0 12.8 1.6 16 6.4 12.8 12.8 12.8 41.6 12.8 51.2-4.8 99.2-19.2 150.4-30.4 188.8-3.2 11.2-6.4 22.4-9.6 33.6-3.2 12.8-6.4 14.4-12.8 14.4h-150.4v24h150.4c25.6 0 33.6-19.2 36.8-32 3.2-11.2 6.4-22.4 9.6-33.6 11.2-41.6 25.6-92.8 32-195.2 0-1.6 1.6-46.4-19.2-68.8-8-9.6-19.2-14.4-32-14.4-11.2 0-94.4 0-200 0zM785.6 238.4h-526.4l25.6 273.6h72v-24h-49.6l-20.8-225.6h472l-16 225.6h-51.2v24h73.6zM219.2 393.6h16v-43.2h-16v43.2zM211.2 320h16v-9.6h-16v9.6zM417.6 648h38.4v-24h-38.4v24zM465.6 328h-96v201.6h24v-177.6h72zM700.8 328h-64v24h40v272h-60.8v24h84.8zM315.2 518.4c-52.8 0-96 43.2-96 96s43.2 96 96 96c30.4 0 60.8-14.4 78.4-40 12.8-16 19.2-36.8 19.2-57.6 0-33.6-16-64-44.8-81.6-16-8-33.6-12.8-52.8-12.8zM315.2 696c-44.8 0-80-36.8-80-80s36.8-80 80-80c16 0 30.4 4.8 43.2 12.8 24 14.4 36.8 40 36.8 67.2 0 17.6-4.8 33.6-16 48-12.8 19.2-38.4 32-64 32zM332.8 592c0 3.2-1.6 6.4-4.8 9.6s-6.4 4.8-12.8 8c-8 3.2-14.4 6.4-19.2 11.2s-6.4 9.6-6.4 17.6c0 6.4 1.6 12.8 6.4 17.6s9.6 6.4 16 8v14.4h9.6v-14.4c6.4-1.6 12.8-4.8 16-9.6s6.4-11.2 6.4-20.8h-12.8c0 6.4-1.6 11.2-3.2 14.4-3.2 3.2-6.4 4.8-11.2 4.8s-8-1.6-11.2-3.2c-3.2-3.2-3.2-6.4-3.2-11.2s1.6-8 3.2-9.6c3.2-3.2 8-4.8 14.4-8 8-3.2 14.4-6.4 19.2-11.2s6.4-9.6 6.4-17.6c0-8-1.6-12.8-6.4-17.6s-11.2-6.4-17.6-8v-12.8h-9.6v12.8c-8 0-12.8 3.2-17.6 8s-6.4 11.2-6.4 20.8v0h12.8c0-6.4 1.6-11.2 4.8-14.4s8-4.8 12.8-4.8c4.8 0 9.6 1.6 12.8 3.2 0 4.8 1.6 8 1.6 12.8zM321.6 552h-14.4v12.8c-6.4 1.6-12.8 3.2-17.6 8s-8 12.8-8 22.4v0 1.6h16v-1.6c0-6.4 1.6-9.6 4.8-12.8s6.4-3.2 11.2-3.2c4.8 0 9.6 1.6 11.2 3.2 3.2 1.6 3.2 4.8 3.2 9.6 0 3.2-1.6 6.4-3.2 8-3.2 3.2-6.4 4.8-12.8 6.4-8 3.2-16 6.4-20.8 11.2s-6.4 11.2-6.4 19.2c0 8 1.6 14.4 6.4 19.2s9.6 6.4 16 8v14.4h14.4v-14.4c6.4-1.6 12.8-4.8 16-9.6 4.8-4.8 6.4-12.8 6.4-22.4v-1.6h-16v1.6c0 4.8-1.6 9.6-3.2 12.8s-4.8 4.8-9.6 4.8c-4.8 0-8-1.6-9.6-3.2-1.6-3.2-1.6-6.4-1.6-9.6s1.6-6.4 3.2-8c1.6-1.6 6.4-4.8 12.8-6.4 9.6-3.2 16-6.4 20.8-11.2s6.4-11.2 6.4-19.2c0-8-3.2-14.4-6.4-19.2-4.8-4.8-9.6-6.4-17.6-8v-12.8zM312 556.8h6.4v12.8h1.6c6.4 0 12.8 3.2 17.6 6.4s6.4 9.6 6.4 16c0 6.4-1.6 11.2-6.4 16-3.2 3.2-9.6 8-19.2 9.6-6.4 3.2-11.2 4.8-14.4 8s-4.8 6.4-4.8 11.2c0 4.8 1.6 9.6 4.8 12.8s6.4 4.8 12.8 4.8c4.8 0 9.6-1.6 12.8-6.4 3.2-3.2 4.8-8 4.8-12.8h8c0 6.4-1.6 12.8-4.8 17.6s-8 8-16 8h-1.6v14.4h-6.4v-14.4h-1.6c-6.4-1.6-11.2-3.2-16-8-3.2-4.8-4.8-9.6-4.8-16s1.6-11.2 6.4-16c4.8-4.8 11.2-8 19.2-9.6 6.4-1.6 11.2-4.8 14.4-8s4.8-6.4 4.8-11.2c0-4.8-1.6-9.6-4.8-12.8s-8-4.8-14.4-4.8c-4.8 0-9.6 1.6-12.8 4.8s-4.8 8-6.4 12.8h-9.6c0-8 1.6-12.8 6.4-17.6s9.6-6.4 17.6-8h1.6v-9.6zM534.4 617.6c-32 0-62.4 16-80 43.2-11.2 16-16 35.2-16 54.4 0 52.8 43.2 96 96 96s96-43.2 96-96c0-20.8-6.4-40-19.2-57.6-17.6-25.6-46.4-40-76.8-40zM534.4 795.2c-44.8 0-80-36.8-80-80 0-16 4.8-32 14.4-44.8 14.4-22.4 40-35.2 67.2-35.2 25.6 0 49.6 12.8 65.6 33.6 9.6 14.4 16 30.4 16 48-3.2 43.2-40 78.4-83.2 78.4zM499.2 699.2h-20.8l-4.8-11.2h-9.6l19.2 54.4h9.6l19.2-54.4h-9.6l-3.2 11.2zM497.6 705.6l-8 25.6-9.6-25.6h17.6zM515.2 684.8h-12.8l-3.2 11.2h-19.2l-3.2-11.2h-12.8l20.8 57.6h12.8l17.6-57.6zM505.6 689.6h4.8l-17.6 49.6h-6.4l-17.6-49.6h4.8l3.2 11.2h24l4.8-11.2zM500.8 704h-22.4l11.2 33.6 11.2-33.6zM483.2 708.8h11.2l-6.4 17.6-4.8-17.6zM552 710.4c1.6-3.2 3.2-4.8 3.2-8 0-4.8-1.6-8-4.8-11.2-1.6-3.2-6.4-3.2-11.2-3.2h-20.8v54.4h19.2c4.8 0 9.6-1.6 11.2-3.2 3.2-3.2 4.8-6.4 4.8-9.6s-1.6-6.4-3.2-8c-1.6-1.6-3.2-3.2-6.4-4.8 4.8-1.6 6.4-3.2 8-6.4zM526.4 718.4h9.6c3.2 0 4.8 0 6.4 1.6s1.6 3.2 1.6 6.4c0 3.2 0 4.8-1.6 6.4s-3.2 1.6-6.4 1.6h-9.6v-16zM544 697.6c1.6 1.6 3.2 3.2 3.2 6.4s-1.6 4.8-3.2 6.4c-1.6 1.6-4.8 1.6-8 1.6h-9.6v-17.6h11.2c3.2 0 4.8 1.6 6.4 3.2zM539.2 684.8h-22.4v59.2h22.4c6.4 0 9.6-1.6 12.8-4.8s4.8-6.4 4.8-11.2c0-3.2-1.6-6.4-3.2-9.6-1.6-1.6-1.6-1.6-3.2-3.2 1.6-1.6 3.2-1.6 3.2-3.2v0c1.6-3.2 3.2-6.4 3.2-9.6 0-4.8-1.6-9.6-4.8-12.8s-6.4-4.8-12.8-4.8zM520 689.6h17.6c4.8 0 8 1.6 11.2 3.2s3.2 4.8 3.2 9.6c0 3.2 0 4.8-3.2 8v0c-1.6 1.6-3.2 3.2-6.4 3.2l-8 1.6 8 1.6c1.6 0 4.8 1.6 4.8 3.2 1.6 1.6 1.6 4.8 1.6 6.4 0 3.2-1.6 6.4-3.2 8s-6.4 3.2-11.2 3.2h-17.6v-48zM537.6 692.8h-12.8v20.8h12.8c3.2 0 6.4-1.6 8-3.2s3.2-4.8 3.2-8c0-3.2-1.6-6.4-3.2-8v0c-1.6 0-4.8-1.6-8-1.6zM529.6 696h8c3.2 0 4.8 0 6.4 1.6s1.6 3.2 1.6 4.8c0 1.6 0 3.2-1.6 4.8s-3.2 1.6-6.4 1.6h-8v-12.8zM537.6 716.8h-12.8v20.8h11.2c3.2 0 6.4-1.6 8-3.2s3.2-4.8 3.2-8c0-3.2-1.6-6.4-3.2-8s-3.2-1.6-6.4-1.6zM529.6 720h8c1.6 0 4.8 0 4.8 1.6 1.6 1.6 1.6 3.2 1.6 4.8s0 3.2-1.6 4.8c-1.6 1.6-3.2 1.6-4.8 1.6h-8v-12.8zM592 688l-12.8 20.8-9.6-20.8h-9.6l16 27.2-16 27.2h9.6l12.8-19.2 11.2 19.2h9.6l-16-27.2 16-27.2h-11.2zM606.4 684.8h-14.4l-11.2 19.2-9.6-17.6h-14.4l17.6 30.4-17.6 28.8h14.4l11.2-17.6 9.6 17.6h14.4l-17.6-28.8 17.6-32zM593.6 689.6h4.8l-16 25.6 14.4 25.6h-4.8l-11.2-22.4-12.8 22.4h-4.8l14.4-24-14.4-25.6h4.8l12.8 22.4 12.8-24zM468.8 475.2h-33.6l-6.4-17.6h-12.8l28.8 78.4h14.4l28.8-78.4h-14.4l-4.8 17.6zM465.6 484.8l-12.8 36.8-12.8-36.8h25.6zM491.2 456h-17.6l-6.4 17.6h-30.4l-6.4-17.6h-17.6l30.4 81.6h17.6l30.4-81.6zM476.8 459.2h9.6l-27.2 73.6h-11.2l-27.2-73.6h9.6l6.4 17.6h36.8l3.2-17.6zM468.8 483.2h-32l16 44.8 16-44.8zM441.6 486.4h20.8l-9.6 28.8-11.2-28.8zM561.6 476.8c-3.2-6.4-8-11.2-14.4-14.4s-14.4-4.8-22.4-4.8h-27.2v78.4h27.2c8 0 16-1.6 22.4-4.8s11.2-8 14.4-14.4c3.2-6.4 4.8-12.8 4.8-20.8s-1.6-14.4-4.8-19.2zM545.6 476.8c4.8 4.8 8 11.2 8 20.8s-3.2 16-8 20.8c-4.8 4.8-12.8 8-22.4 8h-12.8v-56h12.8c9.6-1.6 17.6 1.6 22.4 6.4zM524.8 456h-28.8v83.2h28.8c9.6 0 16-1.6 24-4.8 6.4-3.2 11.2-8 14.4-14.4s4.8-12.8 4.8-22.4c0-8-1.6-16-4.8-22.4v0c-3.2-6.4-8-11.2-14.4-14.4s-14.4-4.8-24-4.8zM500.8 459.2h24c8 0 16 1.6 20.8 4.8 6.4 3.2 11.2 8 12.8 12.8v0c3.2 4.8 4.8 12.8 4.8 19.2s0 16-3.2 20.8c-3.2 4.8-8 9.6-12.8 12.8-6.4 3.2-12.8 4.8-20.8 4.8h-24v-75.2zM523.2 467.2h-14.4v60.8h14.4c9.6 0 17.6-3.2 24-8 4.8-4.8 8-12.8 8-22.4s-3.2-17.6-8-22.4c-4.8-4.8-12.8-8-24-8zM513.6 470.4h11.2c9.6 0 16 1.6 20.8 6.4v0c4.8 4.8 6.4 11.2 6.4 19.2s-3.2 16-8 20.8c-4.8 4.8-11.2 6.4-20.8 6.4h-11.2v-52.8zM628.8 467.2c-1.6-3.2-4.8-6.4-8-8s-8-3.2-14.4-3.2c-4.8 0-9.6 1.6-14.4 3.2s-8 4.8-9.6 8c-3.2 3.2-4.8 8-4.8 11.2h14.4c0-3.2 1.6-6.4 4.8-9.6s6.4-3.2 9.6-3.2c3.2 0 6.4 1.6 9.6 3.2 1.6 1.6 3.2 4.8 3.2 8s0 4.8-1.6 6.4c-1.6 1.6-3.2 3.2-6.4 4.8-1.6 1.6-4.8 1.6-9.6 3.2s-9.6 3.2-12.8 4.8c-3.2 1.6-6.4 3.2-8 6.4-3.2 4.8-4.8 9.6-4.8 14.4s1.6 8 3.2 11.2c1.6 3.2 4.8 6.4 9.6 8 3.2 1.6 8 3.2 12.8 3.2 8 0 14.4-1.6 19.2-6.4s8-9.6 8-16h-14.4c0 3.2-1.6 4.8-4.8 8-1.6 1.6-4.8 3.2-9.6 3.2-3.2 0-6.4-1.6-8-3.2s-3.2-4.8-3.2-8c0-3.2 0-4.8 1.6-6.4s3.2-3.2 6.4-4.8c1.6-1.6 4.8-1.6 9.6-3.2s9.6-3.2 12.8-4.8c3.2-1.6 6.4-3.2 8-6.4s3.2-6.4 3.2-12.8c1.6-3.2 0-8-1.6-11.2zM606.4 454.4c-6.4 0-11.2 1.6-16 3.2s-8 4.8-11.2 8c-3.2 3.2-4.8 8-4.8 12.8v1.6h17.6v-1.6c0-3.2 1.6-4.8 3.2-8 1.6-1.6 4.8-3.2 9.6-3.2 3.2 0 6.4 1.6 8 3.2s3.2 3.2 3.2 6.4c0 1.6 0 4.8-1.6 6.4s-3.2 3.2-4.8 3.2c-1.6 1.6-4.8 1.6-9.6 3.2s-9.6 3.2-12.8 4.8c-3.2 1.6-6.4 4.8-8 8-3.2 3.2-3.2 8-3.2 12.8s1.6 8 3.2 12.8c1.6 3.2 4.8 6.4 9.6 8s9.6 3.2 14.4 3.2c8 0 16-1.6 20.8-6.4s8-9.6 9.6-16v-1.6h-17.6v1.6c0 3.2-1.6 4.8-3.2 6.4s-4.8 3.2-8 3.2c-3.2 0-4.8 0-8-1.6-1.6-1.6-3.2-3.2-3.2-6.4 0-1.6 0-3.2 1.6-4.8s3.2-3.2 4.8-3.2c1.6-1.6 4.8-1.6 9.6-3.2s9.6-3.2 12.8-4.8c3.2-1.6 6.4-4.8 8-8 3.2-3.2 3.2-8 3.2-12.8s-1.6-8-3.2-11.2v0c-1.6-3.2-4.8-6.4-9.6-8-3.2-6.4-9.6-8-14.4-8zM579.2 476.8c0-3.2 1.6-6.4 3.2-8 1.6-3.2 4.8-6.4 9.6-8 3.2-1.6 8-3.2 14.4-3.2 4.8 0 9.6 1.6 12.8 3.2s6.4 4.8 8 8v0c1.6 3.2 3.2 6.4 3.2 9.6 0 4.8-1.6 8-3.2 11.2s-4.8 4.8-8 6.4c-3.2 1.6-6.4 3.2-11.2 4.8-3.2 1.6-6.4 3.2-9.6 3.2-3.2 1.6-4.8 3.2-6.4 4.8s-3.2 4.8-3.2 8c0 4.8 1.6 8 3.2 9.6 3.2 1.6 6.4 3.2 9.6 3.2 4.8 0 8-1.6 11.2-3.2 1.6-1.6 3.2-4.8 4.8-6.4h9.6c-1.6 4.8-3.2 8-6.4 11.2-4.8 3.2-9.6 4.8-17.6 4.8-4.8 0-9.6-1.6-12.8-3.2s-6.4-3.2-8-6.4c-1.6-3.2-3.2-6.4-3.2-9.6 0-4.8 1.6-8 3.2-11.2s4.8-4.8 6.4-6.4c3.2-1.6 6.4-3.2 11.2-4.8s8-3.2 9.6-3.2c3.2-1.6 4.8-3.2 6.4-4.8s3.2-4.8 3.2-8c0-3.2-1.6-6.4-3.2-9.6-3.2-3.2-6.4-3.2-11.2-3.2s-8 1.6-11.2 4.8c-3.2 1.6-4.8 4.8-4.8 8h-9.6zM824 318.4c-6.4 0-12.8 1.6-17.6 6.4-6.4 4.8-9.6 12.8-11.2 20.8s0 16 4.8 22.4c4.8 6.4 11.2 11.2 19.2 12.8s14.4 0 20.8-4.8c6.4-4.8 11.2-12.8 12.8-20.8 3.2-17.6-8-33.6-24-36.8-1.6 0-3.2 0-4.8 0zM824 366.4c0 0-1.6 0-1.6 0-3.2 0-6.4-3.2-8-6.4s-3.2-8-1.6-12.8 3.2-8 6.4-11.2c3.2-1.6 6.4-3.2 9.6-3.2 8 1.6 11.2 9.6 11.2 17.6v0c0 4.8-3.2 8-6.4 11.2-4.8 3.2-6.4 4.8-9.6 4.8z" />
<glyph unicode="&#xe905;" glyph-name="shiled-alt" data-tags="shiled-alt" d="M514.048 81.408c-16.384 0-32.768 4.096-47.104 13.312-187.392 113.664-242.688 228.352-257.024 271.36-3.072 9.216-5.12 18.432-5.12 28.672v368.64c0 12.288 9.216 21.504 21.504 21.504h6.144l5.12-3.072c6.144-3.072 141.312-83.968 237.568 17.408 9.216 9.216 20.48 14.336 33.792 13.312 13.312 0 26.624-7.168 34.816-17.408 81.92-98.304 240.64-13.312 242.688-12.288l30.72 16.384v-397.312c0-14.336-3.072-29.696-10.24-41.984v0c-86.016-159.744-192.512-236.544-248.832-267.264-14.336-7.168-28.672-11.264-44.032-11.264zM245.76 732.672v-337.92c0-5.12 1.024-10.24 2.048-15.36 10.24-30.72 58.368-139.264 240.64-249.856 15.36-9.216 33.792-9.216 49.152-1.024 52.224 28.672 151.552 100.352 232.448 250.88v0c3.072 7.168 5.12 14.336 5.12 22.528v330.752c-57.344-23.552-184.32-59.392-263.168 36.864-1.024 2.048-3.072 3.072-5.12 3.072s-3.072-1.024-3.072-1.024c-89.088-93.184-203.776-61.44-258.048-38.912zM627.712 260.608h-282.624v48.128l7.168 2.048c34.816 10.24 56.32 27.648 64.512 50.176 6.144 18.432 1.024 34.816-1.024 36.864-12.288 11.264-18.432 33.792-21.504 51.2-11.264 1.024-20.48 7.168-25.6 19.456-7.168 17.408-4.096 44.032 10.24 58.368-20.48 80.896 8.192 117.76 35.84 134.144 39.936 23.552 95.232 15.36 118.784-2.048 23.552 1.024 41.984-5.12 54.272-18.432 28.672-30.72 20.48-88.064 16.384-115.712 0-1.024 0-1.024 0-2.048 15.36-14.336 16.384-39.936 8.192-58.368-5.12-12.288-14.336-19.456-24.576-20.48-4.096-23.552-11.264-32.768-22.528-49.152-4.096-14.336-3.072-25.6 1.024-36.864l-18.432-8.192c-7.168 15.36-7.168 33.792-2.048 52.224v2.048l2.048 2.048c13.312 17.408 17.408 24.576 20.48 49.152l1.024 12.288 12.288-4.096c5.12-2.048 10.24 7.168 11.264 9.216 6.144 12.288 5.12 29.696-6.144 36.864l-5.12 3.072 2.048 7.168c0 2.048 1.024 5.12 1.024 8.192 3.072 22.528 11.264 75.776-11.264 99.328-9.216 9.216-23.552 13.312-41.984 11.264h-5.12l-3.072 3.072c-13.312 13.312-63.488 22.528-98.304 3.072-31.744-19.456-40.96-59.392-25.6-117.76l2.048-7.168-6.144-4.096c-9.216-6.144-14.336-26.624-9.216-38.912 3.072-6.144 6.144-8.192 13.312-6.144l10.24 2.048 2.048-10.24c4.096-27.648 12.288-44.032 17.408-48.128 8.192-7.168 13.312-29.696 8.192-52.224s-22.528-51.2-72.704-67.584v-12.288h262.144v-21.504zM630.784 260.608c-34.816 0-63.488 28.672-63.488 63.488 0 15.36 5.12 28.672 14.336 39.936 12.288 14.336 30.72 23.552 49.152 23.552 20.48 0 39.936-10.24 52.224-26.624 8.192-11.264 12.288-23.552 12.288-36.864 0-35.84-28.672-63.488-64.512-63.488zM630.784 367.104c-12.288 0-25.6-6.144-33.792-16.384-6.144-7.168-9.216-16.384-9.216-26.624 0-23.552 19.456-43.008 43.008-43.008s43.008 19.456 43.008 43.008c0 9.216-3.072 17.408-8.192 24.576-7.168 11.264-20.48 18.432-34.816 18.432zM678.912 354.816l-10.24 1.024c0 2.048 0 5.12 0 7.168 0 26.624-16.384 48.128-37.888 48.128s-36.864-20.48-36.864-48.128c0-2.048 0-4.096 0-6.144l-10.24-1.024c0 2.048 0 4.096 0 6.144 0 32.768 21.504 58.368 48.128 58.368s48.128-26.624 48.128-58.368c-1.024-1.024-1.024-4.096-1.024-7.168zM630.784 285.184c-9.216 0-17.408 9.216-17.408 19.456s8.192 19.456 17.408 19.456 17.408-9.216 17.408-19.456-7.168-19.456-17.408-19.456zM630.784 313.856c-4.096 0-7.168-4.096-7.168-9.216s3.072-9.216 7.168-9.216 7.168 4.096 7.168 9.216-3.072 9.216-7.168 9.216z" />
<glyph unicode="&#xe906;" glyph-name="user" data-tags="user" d="M512 617.984v0c-41.984 0-77.824 27.648-89.088 68.608-2.048 7.168-3.072 15.36-3.072 22.528 0 24.576 9.216 47.104 26.624 64.512s39.936 26.624 64.512 26.624c0 0 0 0 0 0 41.984 0 77.824-27.648 89.088-68.608 2.048-7.168 3.072-15.36 3.072-22.528 0-50.176-40.96-91.136-91.136-91.136zM512 769.536c-16.384 0-31.744-6.144-43.008-17.408s-17.408-26.624-17.408-41.984c0-5.12 1.024-10.24 2.048-15.36 7.168-26.624 30.72-45.056 58.368-45.056v0c32.768 0 60.416 26.624 60.416 60.416 0 5.12-1.024 10.24-2.048 15.36-7.168 24.576-30.72 44.032-58.368 44.032 0 0 0 0 0 0zM475.136 98.816c-2.048 0-5.12 0-7.168 1.024-25.6 4.096-44.032 26.624-44.032 53.248v179.2c-32.768 4.096-58.368 32.768-58.368 66.56v150.528c0 36.864 29.696 67.584 67.584 67.584h158.72c36.864 0 66.56-29.696 67.584-66.56v-151.552c0-33.792-25.6-62.464-58.368-66.56v-179.2c0-26.624-19.456-50.176-44.032-53.248-16.384-2.048-32.768 3.072-44.032 14.336-11.264-10.24-23.552-15.36-37.888-15.36zM519.168 122.368c0 0 0 0 0 0s0 0 0 0zM432.128 586.24c-20.48 0-36.864-16.384-36.864-36.864v-150.528c0-20.48 16.384-36.864 36.864-36.864h21.504v-209.92c0-11.264 8.192-21.504 18.432-22.528 8.192-1.024 16.384 2.048 20.48 9.216 4.096 6.144 11.264 10.24 18.432 10.24 0 0 0 0 0 0 7.168 0 14.336-4.096 18.432-10.24 4.096-7.168 12.288-10.24 20.48-9.216 10.24 1.024 18.432 11.264 18.432 22.528v209.92h21.504c20.48 0 36.864 16.384 36.864 36.864v151.552c0 20.48-16.384 36.864-36.864 36.864h-6.144l-18.432-94.208h-49.152l-4.096 58.368-5.12-59.392h-49.152l-18.432 94.208h-7.168zM466.944 598.528l12.288-61.44 3.072 32.768c-2.048 7.168-5.12 13.312-8.192 21.504v0l-7.168 7.168zM540.672 569.856l3.072-32.768 12.288 61.44-6.144-6.144c-4.096-8.192-7.168-15.36-9.216-22.528zM509.952 586.24c1.024-2.048 1.024-4.096 2.048-6.144 1.024 2.048 1.024 4.096 2.048 6.144h-4.096zM729.088 617.984v0c-41.984 0-77.824 27.648-89.088 68.608-2.048 7.168-3.072 15.36-3.072 22.528 0 50.176 40.96 91.136 91.136 91.136 41.984 0 77.824-27.648 89.088-68.608 2.048-7.168 3.072-15.36 3.072-22.528 0-50.176-40.96-91.136-91.136-91.136zM729.088 769.536c-33.792 0-60.416-26.624-60.416-60.416 0-5.12 1.024-10.24 2.048-15.36 7.168-26.624 30.72-45.056 58.368-45.056h1.024c32.768 0 60.416 26.624 60.416 60.416 0 5.12-1.024 10.24-2.048 15.36-8.192 25.6-31.744 45.056-59.392 45.056zM692.224 98.816c-2.048 0-5.12 0-7.168 1.024-25.6 4.096-44.032 26.624-44.032 53.248v190.464l7.168 4.096c16.384 11.264 26.624 29.696 26.624 50.176v124.928h21.504l4.096 47.104c-2.048 7.168-4.096 13.312-8.192 21.504v1.024l-22.528 23.552h140.288c36.864 0 66.56-29.696 67.584-66.56v-151.552c0-33.792-25.6-62.464-58.368-66.56v-179.2c0-26.624-19.456-50.176-44.032-53.248-16.384-2.048-32.768 3.072-44.032 14.336-12.288-9.216-24.576-14.336-38.912-14.336zM671.744 328.192v-176.128c0-11.264 8.192-21.504 18.432-22.528 9.216-1.024 19.456 4.096 22.528 13.312 3.072 7.168 9.216 11.264 16.384 11.264s14.336-4.096 16.384-11.264c4.096-9.216 13.312-14.336 22.528-13.312 10.24 1.024 18.432 11.264 18.432 22.528v209.92h21.504c20.48 0 36.864 16.384 36.864 36.864v151.552c0 20.48-16.384 36.864-36.864 36.864h-6.144l-18.432-94.208h-49.152l-5.12 59.392-5.12-59.392h-18.432v-93.184c-1.024-28.672-13.312-54.272-33.792-71.68zM716.8 130.56c0 0 0 0 0 0s0 0 0 0zM757.76 569.856l3.072-32.768 12.288 61.44-6.144-6.144c-4.096-7.168-7.168-15.36-9.216-22.528zM727.040 586.24c1.024-2.048 1.024-4.096 2.048-6.144 1.024 2.048 1.024 4.096 2.048 6.144h-4.096zM294.912 617.984v0c-41.984 0-77.824 27.648-89.088 68.608-2.048 7.168-3.072 15.36-3.072 22.528 0 50.176 40.96 91.136 91.136 91.136 41.984 0 77.824-27.648 89.088-68.608 2.048-7.168 3.072-15.36 3.072-22.528 0-50.176-40.96-91.136-91.136-91.136zM294.912 769.536c-33.792 0-60.416-26.624-60.416-60.416 0-5.12 1.024-10.24 2.048-15.36 7.168-26.624 30.72-45.056 58.368-45.056h1.024c32.768 0 60.416 26.624 60.416 60.416 0 5.12-1.024 10.24-2.048 15.36-8.192 25.6-31.744 45.056-59.392 45.056zM258.048 98.816c-2.048 0-5.12 0-7.168 1.024-25.6 4.096-44.032 26.624-44.032 53.248v179.2c-32.768 4.096-58.368 32.768-58.368 66.56v150.528c0 36.864 29.696 67.584 67.584 67.584h141.312l-24.576-24.576c-3.072-7.168-7.168-15.36-8.192-22.528l4.096-47.104h21.504v-123.904c0-20.48 10.24-38.912 26.624-50.176l6.144-4.096v-191.488c0-26.624-19.456-50.176-44.032-53.248-16.384-2.048-32.768 3.072-44.032 14.336-10.24-10.24-22.528-15.36-36.864-15.36zM285.696 125.44c0 0 0 0 0 0s0 0 0 0zM215.040 586.24c-20.48 0-36.864-16.384-36.864-36.864v-150.528c0-20.48 16.384-36.864 36.864-36.864h21.504v-209.92c0-11.264 8.192-21.504 18.432-22.528 9.216-1.024 17.408 3.072 21.504 11.264 4.096 6.144 10.24 10.24 17.408 10.24 0 0 0 0 0 0 7.168 0 14.336-4.096 17.408-10.24 4.096-8.192 12.288-12.288 21.504-11.264 10.24 1.024 18.432 11.264 18.432 22.528v176.128c-20.48 17.408-32.768 43.008-32.768 70.656v93.184h-18.432l-5.12 59.392-5.12-59.392h-49.152l-18.432 94.208h-7.168zM249.856 598.528l12.288-61.44 3.072 32.768c-2.048 7.168-5.12 13.312-8.192 21.504v0l-7.168 7.168zM292.864 586.24c1.024-2.048 1.024-4.096 2.048-6.144 1.024 2.048 1.024 4.096 2.048 6.144h-4.096z" />
<glyph unicode="&#xe907;" glyph-name="paricle-alt" data-tags="paricle-alt" d="M608.256 93.696c-16.384 0-31.744 5.12-45.056 14.336-33.792 24.576-40.96 72.704-16.384 105.472 8.192 11.264 18.432 18.432 29.696 24.576l-10.24 67.584c-2.048-1.024-5.12-1.024-7.168-1.024-26.624-4.096-54.272 0-77.824 12.288l-33.792-46.080c10.24-12.288 16.384-26.624 19.456-41.984 7.168-47.104-25.6-91.136-72.704-98.304v0c-47.104-7.168-91.136 25.6-98.304 72.704-3.072 22.528 2.048 45.056 15.36 64.512 13.312 18.432 33.792 30.72 56.32 33.792 15.36 2.048 31.744 0 46.080-5.12l33.792 45.056c-21.504 20.48-35.84 47.104-39.936 76.8-3.072 17.408-2.048 33.792 2.048 50.176l-125.952 35.84c-8.192-13.312-19.456-25.6-33.792-33.792-46.080-27.648-106.496-12.288-134.144 33.792-13.312 22.528-17.408 49.152-11.264 73.728 6.144 25.6 22.528 47.104 45.056 60.416 46.080 27.648 106.496 12.288 134.144-33.792 11.264-19.456 15.36-40.96 13.312-61.44l128-36.864c2.048 4.096 5.12 7.168 7.168 11.264 19.456 25.6 45.056 43.008 74.752 50.176l-7.168 71.68c-11.264 2.048-23.552 7.168-32.768 15.36-36.864 27.648-45.056 80.896-17.408 117.76s80.896 45.056 117.76 17.408c36.864-27.648 45.056-80.896 17.408-117.76-11.264-15.36-26.624-25.6-44.032-30.72l7.168-69.632c24.576-1.024 50.176-10.24 71.68-25.6 18.432-14.336 33.792-31.744 43.008-52.224l70.656 26.624c-3.072 18.432-2.048 36.864 6.144 55.296 20.48 51.2 79.872 76.8 131.072 56.32v0c24.576-10.24 45.056-29.696 55.296-54.272s11.264-52.224 1.024-76.8c-10.24-24.576-29.696-45.056-54.272-55.296s-52.224-11.264-76.8-1.024c-19.456 8.192-35.84 21.504-46.080 37.888l-74.752-27.648c2.048-19.456 0-38.912-6.144-57.344l26.624-19.456c10.24 8.192 21.504 13.312 34.816 15.36 20.48 3.072 39.936-2.048 56.32-14.336s26.624-29.696 29.696-49.152c6.144-40.96-22.528-79.872-63.488-86.016s-79.872 22.528-86.016 63.488c-2.048 13.312 0 26.624 4.096 37.888l-21.504 15.36c0 0 0 0 0 0v0c-11.264-15.36-24.576-27.648-40.96-36.864l11.264-76.8c12.288-1.024 24.576-6.144 35.84-14.336 33.792-24.576 40.96-72.704 16.384-105.472-12.288-16.384-29.696-26.624-49.152-29.696-6.144-3.072-10.24-4.096-14.336-4.096zM609.28 204.288c-10.24 0-21.504-5.12-27.648-14.336-5.12-7.168-8.192-16.384-6.144-25.6 1.024-9.216 6.144-17.408 13.312-22.528 15.36-11.264 36.864-8.192 49.152 7.168 11.264 15.36 8.192 36.864-7.168 49.152-7.168 4.096-14.336 6.144-21.504 6.144zM380.928 260.608c-2.048 0-4.096 0-7.168-1.024-12.288-2.048-22.528-8.192-29.696-17.408-7.168-10.24-10.24-21.504-8.192-33.792 4.096-24.576 26.624-41.984 51.2-37.888v0c24.576 4.096 41.984 26.624 37.888 51.2-2.048 12.288-8.192 22.528-17.408 29.696-7.168 6.144-16.384 9.216-26.624 9.216zM739.328 350.72c-2.048 0-3.072 0-5.12 0-19.456-3.072-31.744-20.48-28.672-39.936s20.48-31.744 39.936-28.672c19.456 3.072 31.744 20.48 28.672 39.936v0c-1.024 9.216-6.144 17.408-13.312 22.528-7.168 4.096-13.312 6.144-21.504 6.144zM539.648 529.92c-28.672 0-56.32-13.312-74.752-37.888-14.336-19.456-20.48-44.032-17.408-68.608 4.096-24.576 16.384-46.080 36.864-60.416 19.456-14.336 44.032-20.48 68.608-17.408 24.576 4.096 46.080 16.384 60.416 36.864v0c14.336 19.456 20.48 44.032 17.408 68.608-4.096 24.576-16.384 46.080-36.864 60.416-15.36 12.288-34.816 18.432-54.272 18.432zM831.488 596.48c-23.552 0-46.080-14.336-55.296-37.888-12.288-30.72 2.048-65.536 32.768-77.824 14.336-6.144 30.72-6.144 46.080 0 14.336 6.144 26.624 17.408 31.744 32.768 6.144 15.36 6.144 30.72 0 46.080s-17.408 26.624-32.768 31.744v0c-7.168 4.096-15.36 5.12-22.528 5.12zM199.68 610.816c-10.24 0-19.456-3.072-28.672-8.192-13.312-8.192-22.528-20.48-25.6-34.816s-1.024-29.696 6.144-43.008c16.384-26.624 51.2-35.84 77.824-19.456s35.84 51.2 19.456 77.824c-10.24 17.408-29.696 27.648-49.152 27.648zM517.12 764.416c-13.312 0-26.624-6.144-34.816-17.408-7.168-9.216-10.24-20.48-8.192-31.744s7.168-21.504 17.408-28.672c19.456-14.336 46.080-10.24 60.416 9.216s10.24 46.080-9.216 60.416c-8.192 5.12-17.408 8.192-25.6 8.192z" />
<glyph unicode="&#xe908;" glyph-name="data-server" data-tags="data-server" d="M757.76 514.56h-31.744c-7.168 0-12.288 5.12-13.312 12.288l-3.072 19.456c-6.144 2.048-11.264 4.096-17.408 7.168l-16.384-12.288c-4.096-4.096-12.288-3.072-17.408 1.024l-22.528 22.528c-5.12 5.12-5.12 12.288-1.024 17.408l11.264 15.36c-3.072 5.12-5.12 11.264-7.168 17.408l-20.48 3.072c-6.144 1.024-11.264 6.144-11.264 13.312v31.744c0 7.168 5.12 12.288 12.288 13.312l19.456 3.072c2.048 6.144 4.096 11.264 7.168 17.408l-11.264 17.408c-4.096 5.12-3.072 12.288 1.024 17.408l22.528 22.528c5.12 5.12 12.288 5.12 17.408 1.024l15.36-11.264c5.12 3.072 11.264 5.12 17.408 7.168l3.072 20.48c1.024 6.144 6.144 11.264 13.312 11.264h32.768c7.168 0 12.288-5.12 13.312-12.288l3.072-19.456c6.144-2.048 12.288-4.096 17.408-7.168l16.384 12.288c4.096 4.096 12.288 3.072 17.408-1.024l22.528-22.528c5.12-5.12 5.12-12.288 1.024-17.408l-11.264-15.36c3.072-5.12 5.12-11.264 7.168-17.408l20.48-3.072c6.144-1.024 11.264-6.144 11.264-13.312v-31.744c0-7.168-5.12-12.288-12.288-13.312l-19.456-3.072c-2.048-6.144-4.096-12.288-7.168-17.408l12.288-16.384c4.096-5.12 3.072-12.288-1.024-17.408l-22.528-22.528c-5.12-5.12-12.288-5.12-17.408-1.024l-15.36 11.264c-5.12-3.072-11.264-5.12-17.408-7.168l-3.072-20.48c-3.072-7.168-8.192-12.288-15.36-12.288zM750.592 528.896c0 0 0 0 0 0v0zM733.184 529.92v0c0-1.024 0 0 0 0zM732.16 535.040h19.456l3.072 17.408c1.024 6.144 5.12 10.24 11.264 12.288s13.312 4.096 18.432 8.192c5.12 3.072 11.264 3.072 16.384-1.024l14.336-10.24 14.336 14.336-10.24 14.336c-3.072 5.12-4.096 11.264-1.024 16.384 3.072 6.144 6.144 12.288 8.192 18.432s6.144 10.24 12.288 11.264l17.408 3.072v19.456l-17.408 3.072c-6.144 1.024-10.24 5.12-12.288 11.264s-4.096 13.312-8.192 18.432c-3.072 5.12-3.072 11.264 1.024 16.384l10.24 14.336-14.336 12.288-14.336-10.24c-5.12-3.072-11.264-4.096-16.384-1.024-6.144 3.072-12.288 6.144-18.432 8.192s-10.24 6.144-11.264 12.288l-3.072 17.408h-19.456l-3.072-17.408c-1.024-6.144-5.12-10.24-11.264-12.288-7.168-2.048-13.312-4.096-18.432-8.192-5.12-3.072-12.288-2.048-16.384 1.024l-14.336 10.24-13.312-13.312 10.24-14.336c3.072-5.12 4.096-11.264 1.024-16.384-3.072-6.144-6.144-12.288-8.192-18.432s-6.144-10.24-12.288-11.264l-17.408-3.072v-19.456l17.408-3.072c6.144-1.024 10.24-5.12 12.288-11.264s4.096-13.312 8.192-18.432c3.072-5.12 2.048-12.288-1.024-16.384l-10.24-14.336 14.336-14.336 14.336 10.24c5.12 3.072 11.264 4.096 16.384 1.024 6.144-3.072 12.288-6.144 18.432-8.192s10.24-6.144 11.264-12.288l2.048-16.384zM771.072 544.256c0 0 0 0 0 0s0 0 0 0zM775.168 548.352v0c0 0 0 0 0 0zM794.624 554.496c0 0 0 0 0 0s0 0 0 0zM789.504 554.496c0 0 0 0 0 0v0zM664.576 557.568c-1.024 0-1.024 0 0 0v0zM819.2 557.568v0c0 0 0 0 0 0zM832.512 569.856c0 0 0 0 0 0v0zM652.288 570.88v0c0-1.024 0 0 0 0zM648.192 600.576c0 0 0 0 0 0v0zM861.184 639.488c-1.024 0-1.024-1.024 0 0v0zM622.592 639.488v0c0 0 0 0 0 0zM861.184 656.896c0 0 1.024 0 1.024 0h-1.024zM623.616 656.896v0c0 0 0 0 0 0zM841.728 680.448v0c0 0 0 0 0 0zM643.072 680.448c-1.024 0-1.024 0 0 0v0zM832.512 725.504c0 0 0 0 0 0v0zM651.264 726.528v0c0-1.024 0 0 0 0zM664.576 737.792c0 0 0 0 0 0v0zM820.224 738.816v0c0-1.024 0 0 0 0zM673.792 738.816v0c0 0 0 0 0 0zM789.504 740.864c0 0 0 0 0 0v0zM695.296 741.888v0c0 0 0 0 0 0zM794.624 741.888c0 0 0 0 0 0s0 0 0 0zM771.072 751.104c0 0 0 0 0 0s0 0 0 0zM750.592 766.464c0 0 0 0 0 0v0zM733.184 767.488v0c0 0 0 0 0 0zM742.4 595.456c-28.672 0-53.248 23.552-53.248 53.248s23.552 53.248 53.248 53.248 53.248-23.552 53.248-53.248-24.576-53.248-53.248-53.248zM742.4 680.448c-17.408 0-32.768-14.336-32.768-32.768 0-17.408 14.336-32.768 32.768-32.768s32.768 14.336 32.768 32.768c-1.024 18.432-15.36 32.768-32.768 32.768zM464.896 111.104c-128 0-244.736 29.696-302.080 79.872l-7.168 6.144v427.008c-2.048 3.072-2.048 7.168-2.048 10.24 0 69.632 155.648 106.496 310.272 106.496 51.2 0 101.376-4.096 146.432-11.264l-7.168-39.936c-41.984 7.168-90.112 11.264-139.264 11.264-174.080 0-269.312-43.008-269.312-65.536s95.232-65.536 269.312-65.536c53.248 0 104.448 4.096 148.48 12.288l7.168-39.936c-47.104-8.192-100.352-13.312-155.648-13.312-105.472 0-210.944 17.408-267.264 50.176v-86.016c68.608-40.96 303.104-109.568 548.864-5.12l28.672 12.288v-301.056l-7.168-7.168c-60.416-55.296-200.704-73.728-206.848-74.752-31.744-4.096-64.512-6.144-95.232-6.144zM195.584 216.576c66.56-50.176 215.040-74.752 359.424-58.368 34.816 4.096 132.096 23.552 178.176 58.368v84.992c-69.632-31.744-180.224-45.056-186.368-45.056-201.728-16.384-296.96 18.432-350.208 46.080v-86.016zM195.584 348.672c46.080-25.6 131.072-69.632 347.136-52.224 37.888 4.096 143.36 21.504 190.464 51.2v90.112c-231.424-87.040-445.44-35.84-536.576 8.192v-97.28z" />
</font></defs></svg>